[INFO: Main      ] Starting Contiki-NG-release/v4.3-98-g03dc244-dirty
[INFO: Main      ] - Routing: R-RPT
[INFO: Main      ] - Net: nullnet
[INFO: Main      ] - MAC: TSCH
[INFO: Main      ] - 802.15.4 PANID: 0xabcd
[INFO: Main      ] - 802.15.4 TSCH default hopping sequence length: 6
[INFO: Main      ] Node ID: 3
[INFO: Main      ] Link-layer address: 0012.4b00.194a.5283
[INFO: Zoul      ] Zolertia RE-Mote revision B platform
Orchestra: initializing rule 0
Orchestra: initialization done
[INFO: CNLAB_NODE] User button Pressed
[INFO: CNLAB_NODE] User button Released
[INFO: CNLAB     ] current ASN = 55 sf size = 53
[INFO: CNLAB     ] Slotframe length = 795 NUMBER_OF_PROBE_PRR = 50
[INFO: CNLAB     ] WAITING FOR ALL NODES JOIN THE NETWORK
[INFO: CNLAB     ] END OF SEND EB at ASN = 5088
[INFO: CNLAB     ] Node 3 broadcasting Probe packet
[INFO: CNLAB     ] CNLAB added nbr id 22 level 1 seqno 1 RSSI -61 at ASN = 8471
[INFO: CNLAB     ] CNLAB added nbr id 25 level 1 seqno 1 RSSI -39 at ASN = 8477
[INFO: CNLAB     ] CNLAB added nbr id 5 level 1 seqno 1 RSSI -49 at ASN = 8490
[INFO: CNLAB     ] CNLAB added nbr id 6 level 1 seqno 1 RSSI -48 at ASN = 8492
[INFO: CNLAB     ] CNLAB added nbr id 7 level 1 seqno 1 RSSI -58 at ASN = 8494
[INFO: CNLAB     ] CNLAB added nbr id 8 level 1 seqno 1 RSSI -59 at ASN = 8496
[INFO: CNLAB     ] CNLAB added nbr id 9 level 1 seqno 1 RSSI -51 at ASN = 8498
[INFO: CNLAB     ] CNLAB added nbr id 10 level 1 seqno 1 RSSI -49 at ASN = 8500
[INFO: CNLAB     ] CNLAB added nbr id 13 level 1 seqno 1 RSSI -55 at ASN = 8506
[INFO: CNLAB     ] CNLAB added nbr id 14 level 1 seqno 1 RSSI -57 at ASN = 8508
[INFO: CNLAB     ] CNLAB added nbr id 15 level 1 seqno 1 RSSI -50 at ASN = 8510
[INFO: CNLAB     ] CNLAB added nbr id 16 level 1 seqno 1 RSSI -58 at ASN = 8512
[INFO: CNLAB     ] CNLAB added nbr id 17 level 1 seqno 1 RSSI -55 at ASN = 8514
[INFO: CNLAB     ] CNLAB added nbr id 18 level 1 seqno 1 RSSI -69 at ASN = 8516
[INFO: CNLAB     ] CNLAB added nbr id 19 level 1 seqno 1 RSSI -61 at ASN = 8518
[INFO: CNLAB     ] CNLAB added nbr id 20 level 1 seqno 1 RSSI -55 at ASN = 8522
[INFO: CNLAB     ] CNLAB received 2 Probe seqno 2 from Node 22 Level 1 AVG_RSSI -64 at ASN = 8577
[INFO: CNLAB     ] CNLAB received 2 Probe seqno 2 from Node 25 Level 1 AVG_RSSI -39 at ASN = 8583
[INFO: CNLAB     ] CNLAB received 2 Probe seqno 2 from Node 5 Level 1 AVG_RSSI -48 at ASN = 8596
[INFO: CNLAB     ] CNLAB received 2 Probe seqno 2 from Node 6 Level 1 AVG_RSSI -48 at ASN = 8598
[INFO: CNLAB     ] CNLAB received 2 Probe seqno 2 from Node 7 Level 1 AVG_RSSI -57 at ASN = 8600
[INFO: CNLAB     ] CNLAB received 2 Probe seqno 2 from Node 8 Level 1 AVG_RSSI -59 at ASN = 8602
[INFO: CNLAB     ] CNLAB received 2 Probe seqno 2 from Node 9 Level 1 AVG_RSSI -53 at ASN = 8604
[INFO: CNLAB     ] CNLAB received 2 Probe seqno 2 from Node 10 Level 1 AVG_RSSI -50 at ASN = 8606
[INFO: CNLAB     ] CNLAB received 2 Probe seqno 2 from Node 13 Level 1 AVG_RSSI -56 at ASN = 8612
[INFO: CNLAB     ] CNLAB received 2 Probe seqno 2 from Node 14 Level 1 AVG_RSSI -57 at ASN = 8614
[INFO: CNLAB     ] CNLAB received 2 Probe seqno 2 from Node 15 Level 1 AVG_RSSI -50 at ASN = 8616
[INFO: CNLAB     ] CNLAB received 2 Probe seqno 2 from Node 16 Level 1 AVG_RSSI -58 at ASN = 8618
[INFO: CNLAB     ] CNLAB received 2 Probe seqno 2 from Node 17 Level 1 AVG_RSSI -55 at ASN = 8620
[INFO: CNLAB     ] CNLAB received 2 Probe seqno 2 from Node 18 Level 1 AVG_RSSI -68 at ASN = 8622
[INFO: CNLAB     ] CNLAB received 2 Probe seqno 2 from Node 19 Level 1 AVG_RSSI -63 at ASN = 8624
[INFO: CNLAB     ] CNLAB received 2 Probe seqno 2 from Node 20 Level 1 AVG_RSSI -54 at ASN = 8626
[INFO: CNLAB     ] CNLAB received 3 Probe seqno 3 from Node 22 Level 1 AVG_RSSI -61 at ASN = 8683
[INFO: CNLAB     ] CNLAB received 3 Probe seqno 3 from Node 25 Level 1 AVG_RSSI -39 at ASN = 8689
[INFO: CNLAB     ] CNLAB received 3 Probe seqno 3 from Node 5 Level 1 AVG_RSSI -47 at ASN = 8702
[INFO: CNLAB     ] CNLAB received 3 Probe seqno 3 from Node 6 Level 1 AVG_RSSI -48 at ASN = 8704
[INFO: CNLAB     ] CNLAB received 3 Probe seqno 3 from Node 7 Level 1 AVG_RSSI -56 at ASN = 8706
[INFO: CNLAB     ] CNLAB received 3 Probe seqno 3 from Node 8 Level 1 AVG_RSSI -59 at ASN = 8708
[INFO: CNLAB     ] CNLAB received 3 Probe seqno 3 from Node 9 Level 1 AVG_RSSI -53 at ASN = 8710
[INFO: CNLAB     ] CNLAB received 3 Probe seqno 3 from Node 10 Level 1 AVG_RSSI -50 at ASN = 8712
[INFO: CNLAB     ] CNLAB received 3 Probe seqno 3 from Node 13 Level 1 AVG_RSSI -55 at ASN = 8718
[INFO: CNLAB     ] CNLAB received 3 Probe seqno 3 from Node 14 Level 1 AVG_RSSI -57 at ASN = 8720
[INFO: CNLAB     ] CNLAB received 3 Probe seqno 3 from Node 15 Level 1 AVG_RSSI -50 at ASN = 8722
[INFO: CNLAB     ] CNLAB received 3 Probe seqno 3 from Node 16 Level 1 AVG_RSSI -58 at ASN = 8724
[INFO: CNLAB     ] CNLAB received 3 Probe seqno 3 from Node 17 Level 1 AVG_RSSI -54 at ASN = 8726
[INFO: CNLAB     ] CNLAB received 3 Probe seqno 3 from Node 19 Level 1 AVG_RSSI -62 at ASN = 8730
[INFO: CNLAB     ] CNLAB received 3 Probe seqno 3 from Node 20 Level 1 AVG_RSSI -54 at ASN = 8732
[INFO: CNLAB     ] CNLAB received 4 Probe seqno 4 from Node 22 Level 1 AVG_RSSI -60 at ASN = 8789
[INFO: CNLAB     ] CNLAB received 4 Probe seqno 4 from Node 25 Level 1 AVG_RSSI -39 at ASN = 8795
[INFO: CNLAB     ] CNLAB received 4 Probe seqno 4 from Node 5 Level 1 AVG_RSSI -47 at ASN = 8808
[INFO: CNLAB     ] CNLAB received 4 Probe seqno 4 from Node 6 Level 1 AVG_RSSI -49 at ASN = 8810
[INFO: CNLAB     ] CNLAB received 4 Probe seqno 4 from Node 7 Level 1 AVG_RSSI -56 at ASN = 8812
[INFO: CNLAB     ] CNLAB received 4 Probe seqno 4 from Node 8 Level 1 AVG_RSSI -58 at ASN = 8814
[INFO: CNLAB     ] CNLAB received 4 Probe seqno 4 from Node 9 Level 1 AVG_RSSI -54 at ASN = 8816
[INFO: CNLAB     ] CNLAB received 4 Probe seqno 4 from Node 10 Level 1 AVG_RSSI -49 at ASN = 8818
[INFO: CNLAB     ] CNLAB received 4 Probe seqno 4 from Node 13 Level 1 AVG_RSSI -55 at ASN = 8824
[INFO: CNLAB     ] CNLAB received 4 Probe seqno 4 from Node 14 Level 1 AVG_RSSI -57 at ASN = 8826
[INFO: CNLAB     ] CNLAB received 4 Probe seqno 4 from Node 15 Level 1 AVG_RSSI -51 at ASN = 8828
[INFO: CNLAB     ] CNLAB received 4 Probe seqno 4 from Node 16 Level 1 AVG_RSSI -59 at ASN = 8830
[INFO: CNLAB     ] CNLAB received 4 Probe seqno 4 from Node 17 Level 1 AVG_RSSI -54 at ASN = 8832
[INFO: CNLAB     ] CNLAB received 3 Probe seqno 4 from Node 18 Level 1 AVG_RSSI -68 at ASN = 8834
[INFO: CNLAB     ] CNLAB received 4 Probe seqno 4 from Node 19 Level 1 AVG_RSSI -62 at ASN = 8836
[INFO: CNLAB     ] CNLAB received 4 Probe seqno 4 from Node 20 Level 1 AVG_RSSI -54 at ASN = 8838
[INFO: CNLAB     ] CNLAB received 5 Probe seqno 5 from Node 22 Level 1 AVG_RSSI -59 at ASN = 8895
[INFO: CNLAB     ] CNLAB received 5 Probe seqno 5 from Node 25 Level 1 AVG_RSSI -39 at ASN = 8901
[INFO: CNLAB     ] CNLAB received 5 Probe seqno 5 from Node 5 Level 1 AVG_RSSI -47 at ASN = 8914
[INFO: CNLAB     ] CNLAB received 5 Probe seqno 5 from Node 6 Level 1 AVG_RSSI -48 at ASN = 8916
[INFO: CNLAB     ] CNLAB received 5 Probe seqno 5 from Node 7 Level 1 AVG_RSSI -56 at ASN = 8918
[INFO: CNLAB     ] CNLAB received 5 Probe seqno 5 from Node 8 Level 1 AVG_RSSI -58 at ASN = 8920
[INFO: CNLAB     ] CNLAB received 5 Probe seqno 5 from Node 9 Level 1 AVG_RSSI -56 at ASN = 8922
[INFO: CNLAB     ] CNLAB received 5 Probe seqno 5 from Node 10 Level 1 AVG_RSSI -48 at ASN = 8924
[INFO: CNLAB     ] CNLAB received 5 Probe seqno 5 from Node 13 Level 1 AVG_RSSI -55 at ASN = 8930
[INFO: CNLAB     ] CNLAB received 5 Probe seqno 5 from Node 14 Level 1 AVG_RSSI -57 at ASN = 8932
[INFO: CNLAB     ] CNLAB received 5 Probe seqno 5 from Node 15 Level 1 AVG_RSSI -51 at ASN = 8934
[INFO: CNLAB     ] CNLAB received 5 Probe seqno 5 from Node 16 Level 1 AVG_RSSI -59 at ASN = 8936
[INFO: CNLAB     ] CNLAB received 5 Probe seqno 5 from Node 17 Level 1 AVG_RSSI -54 at ASN = 8938
[INFO: CNLAB     ] CNLAB received 4 Probe seqno 5 from Node 18 Level 1 AVG_RSSI -65 at ASN = 8940
[INFO: CNLAB     ] CNLAB received 5 Probe seqno 5 from Node 19 Level 1 AVG_RSSI -63 at ASN = 8942
[INFO: CNLAB     ] CNLAB received 5 Probe seqno 5 from Node 20 Level 1 AVG_RSSI -54 at ASN = 8944
[INFO: CNLAB     ] CNLAB received 6 Probe seqno 6 from Node 22 Level 1 AVG_RSSI -59 at ASN = 9001
[INFO: CNLAB     ] CNLAB received 6 Probe seqno 6 from Node 25 Level 1 AVG_RSSI -38 at ASN = 9007
[INFO: CNLAB     ] CNLAB received 6 Probe seqno 6 from Node 5 Level 1 AVG_RSSI -47 at ASN = 9020
[INFO: CNLAB     ] CNLAB received 6 Probe seqno 6 from Node 6 Level 1 AVG_RSSI -48 at ASN = 9022
[INFO: CNLAB     ] CNLAB received 6 Probe seqno 6 from Node 7 Level 1 AVG_RSSI -56 at ASN = 9024
[INFO: CNLAB     ] CNLAB received 6 Probe seqno 6 from Node 8 Level 1 AVG_RSSI -58 at ASN = 9026
[INFO: CNLAB     ] CNLAB received 6 Probe seqno 6 from Node 9 Level 1 AVG_RSSI -55 at ASN = 9028
[INFO: CNLAB     ] CNLAB received 6 Probe seqno 6 from Node 10 Level 1 AVG_RSSI -51 at ASN = 9030
[INFO: CNLAB     ] CNLAB received 6 Probe seqno 6 from Node 13 Level 1 AVG_RSSI -54 at ASN = 9036
[INFO: CNLAB     ] CNLAB received 6 Probe seqno 6 from Node 14 Level 1 AVG_RSSI -58 at ASN = 9038
[INFO: CNLAB     ] CNLAB received 6 Probe seqno 6 from Node 15 Level 1 AVG_RSSI -51 at ASN = 9040
[INFO: CNLAB     ] CNLAB received 6 Probe seqno 6 from Node 16 Level 1 AVG_RSSI -59 at ASN = 9042
[INFO: CNLAB     ] CNLAB received 6 Probe seqno 6 from Node 17 Level 1 AVG_RSSI -53 at ASN = 9044
[INFO: CNLAB     ] CNLAB received 5 Probe seqno 6 from Node 18 Level 1 AVG_RSSI -62 at ASN = 9046
[INFO: CNLAB     ] CNLAB received 6 Probe seqno 6 from Node 19 Level 1 AVG_RSSI -61 at ASN = 9048
[INFO: CNLAB     ] CNLAB received 6 Probe seqno 6 from Node 20 Level 1 AVG_RSSI -57 at ASN = 9050
[INFO: CNLAB     ] CNLAB received 7 Probe seqno 7 from Node 22 Level 1 AVG_RSSI -59 at ASN = 9107
[INFO: CNLAB     ] CNLAB received 7 Probe seqno 7 from Node 25 Level 1 AVG_RSSI -38 at ASN = 9113
[INFO: CNLAB     ] CNLAB received 7 Probe seqno 7 from Node 5 Level 1 AVG_RSSI -47 at ASN = 9126
[INFO: CNLAB     ] CNLAB received 7 Probe seqno 7 from Node 6 Level 1 AVG_RSSI -47 at ASN = 9128
[INFO: CNLAB     ] CNLAB received 7 Probe seqno 7 from Node 7 Level 1 AVG_RSSI -57 at ASN = 9130
[INFO: CNLAB     ] CNLAB received 7 Probe seqno 7 from Node 8 Level 1 AVG_RSSI -58 at ASN = 9132
[INFO: CNLAB     ] CNLAB received 7 Probe seqno 7 from Node 9 Level 1 AVG_RSSI -55 at ASN = 9134
[INFO: CNLAB     ] CNLAB received 7 Probe seqno 7 from Node 10 Level 1 AVG_RSSI -51 at ASN = 9136
[INFO: CNLAB     ] CNLAB received 7 Probe seqno 7 from Node 13 Level 1 AVG_RSSI -54 at ASN = 9142
[INFO: CNLAB     ] CNLAB received 7 Probe seqno 7 from Node 14 Level 1 AVG_RSSI -58 at ASN = 9144
[INFO: CNLAB     ] CNLAB received 7 Probe seqno 7 from Node 15 Level 1 AVG_RSSI -50 at ASN = 9146
[INFO: CNLAB     ] CNLAB received 7 Probe seqno 7 from Node 16 Level 1 AVG_RSSI -58 at ASN = 9148
[INFO: CNLAB     ] CNLAB received 7 Probe seqno 7 from Node 17 Level 1 AVG_RSSI -53 at ASN = 9150
[INFO: CNLAB     ] CNLAB received 6 Probe seqno 7 from Node 18 Level 1 AVG_RSSI -59 at ASN = 9152
[INFO: CNLAB     ] CNLAB received 7 Probe seqno 7 from Node 19 Level 1 AVG_RSSI -59 at ASN = 9154
[INFO: CNLAB     ] CNLAB received 7 Probe seqno 7 from Node 20 Level 1 AVG_RSSI -56 at ASN = 9156
[INFO: CNLAB     ] CNLAB received 8 Probe seqno 8 from Node 22 Level 1 AVG_RSSI -59 at ASN = 9213
[INFO: CNLAB     ] CNLAB received 8 Probe seqno 8 from Node 25 Level 1 AVG_RSSI -38 at ASN = 9219
[INFO: CNLAB     ] CNLAB received 8 Probe seqno 8 from Node 5 Level 1 AVG_RSSI -47 at ASN = 9232
[INFO: CNLAB     ] CNLAB received 8 Probe seqno 8 from Node 6 Level 1 AVG_RSSI -46 at ASN = 9234
[INFO: CNLAB     ] CNLAB received 8 Probe seqno 8 from Node 7 Level 1 AVG_RSSI -57 at ASN = 9236
[INFO: CNLAB     ] CNLAB received 8 Probe seqno 8 from Node 8 Level 1 AVG_RSSI -58 at ASN = 9238
[INFO: CNLAB     ] CNLAB received 8 Probe seqno 8 from Node 9 Level 1 AVG_RSSI -54 at ASN = 9240
[INFO: CNLAB     ] CNLAB received 8 Probe seqno 8 from Node 10 Level 1 AVG_RSSI -50 at ASN = 9242
[INFO: CNLAB     ] CNLAB received 8 Probe seqno 8 from Node 13 Level 1 AVG_RSSI -55 at ASN = 9248
[INFO: CNLAB     ] CNLAB received 8 Probe seqno 8 from Node 14 Level 1 AVG_RSSI -58 at ASN = 9250
[INFO: CNLAB     ] CNLAB received 8 Probe seqno 8 from Node 15 Level 1 AVG_RSSI -50 at ASN = 9252
[INFO: CNLAB     ] CNLAB received 8 Probe seqno 8 from Node 16 Level 1 AVG_RSSI -58 at ASN = 9254
[INFO: CNLAB     ] CNLAB received 8 Probe seqno 8 from Node 17 Level 1 AVG_RSSI -53 at ASN = 9256
[INFO: CNLAB     ] CNLAB received 7 Probe seqno 8 from Node 18 Level 1 AVG_RSSI -58 at ASN = 9258
[INFO: CNLAB     ] CNLAB received 8 Probe seqno 8 from Node 19 Level 1 AVG_RSSI -58 at ASN = 9260
[INFO: CNLAB     ] CNLAB received 8 Probe seqno 8 from Node 20 Level 1 AVG_RSSI -55 at ASN = 9262
[INFO: CNLAB     ] CNLAB received 9 Probe seqno 9 from Node 22 Level 1 AVG_RSSI -59 at ASN = 9319
[INFO: CNLAB     ] CNLAB received 9 Probe seqno 9 from Node 25 Level 1 AVG_RSSI -38 at ASN = 9325
[INFO: CNLAB     ] CNLAB received 9 Probe seqno 9 from Node 5 Level 1 AVG_RSSI -47 at ASN = 9338
[INFO: CNLAB     ] CNLAB received 9 Probe seqno 9 from Node 6 Level 1 AVG_RSSI -46 at ASN = 9340
[INFO: CNLAB     ] CNLAB received 9 Probe seqno 9 from Node 7 Level 1 AVG_RSSI -57 at ASN = 9342
[INFO: CNLAB     ] CNLAB received 9 Probe seqno 9 from Node 8 Level 1 AVG_RSSI -58 at ASN = 9344
[INFO: CNLAB     ] CNLAB received 9 Probe seqno 9 from Node 9 Level 1 AVG_RSSI -54 at ASN = 9346
[INFO: CNLAB     ] CNLAB received 9 Probe seqno 9 from Node 10 Level 1 AVG_RSSI -50 at ASN = 9348
[INFO: CNLAB     ] CNLAB received 9 Probe seqno 9 from Node 13 Level 1 AVG_RSSI -55 at ASN = 9354
[INFO: CNLAB     ] CNLAB received 9 Probe seqno 9 from Node 14 Level 1 AVG_RSSI -58 at ASN = 9356
[INFO: CNLAB     ] CNLAB received 9 Probe seqno 9 from Node 15 Level 1 AVG_RSSI -50 at ASN = 9358
[INFO: CNLAB     ] CNLAB received 9 Probe seqno 9 from Node 16 Level 1 AVG_RSSI -58 at ASN = 9360
[INFO: CNLAB     ] CNLAB received 9 Probe seqno 9 from Node 17 Level 1 AVG_RSSI -53 at ASN = 9362
[INFO: CNLAB     ] CNLAB received 8 Probe seqno 9 from Node 18 Level 1 AVG_RSSI -57 at ASN = 9364
[INFO: CNLAB     ] CNLAB received 9 Probe seqno 9 from Node 19 Level 1 AVG_RSSI -57 at ASN = 9366
[INFO: CNLAB     ] CNLAB received 9 Probe seqno 9 from Node 20 Level 1 AVG_RSSI -55 at ASN = 9368
[INFO: CNLAB     ] CNLAB received 10 Probe seqno 10 from Node 22 Level 1 AVG_RSSI -59 at ASN = 9425
[INFO: CNLAB     ] CNLAB received 10 Probe seqno 10 from Node 25 Level 1 AVG_RSSI -37 at ASN = 9431
[INFO: CNLAB     ] CNLAB received 10 Probe seqno 10 from Node 5 Level 1 AVG_RSSI -47 at ASN = 9444
[INFO: CNLAB     ] CNLAB received 10 Probe seqno 10 from Node 6 Level 1 AVG_RSSI -47 at ASN = 9446
[INFO: CNLAB     ] CNLAB received 10 Probe seqno 10 from Node 7 Level 1 AVG_RSSI -57 at ASN = 9448
[INFO: CNLAB     ] CNLAB received 10 Probe seqno 10 from Node 8 Level 1 AVG_RSSI -58 at ASN = 9450
[INFO: CNLAB     ] CNLAB received 10 Probe seqno 10 from Node 9 Level 1 AVG_RSSI -53 at ASN = 9452
[INFO: CNLAB     ] CNLAB received 10 Probe seqno 10 from Node 10 Level 1 AVG_RSSI -50 at ASN = 9454
[INFO: CNLAB     ] CNLAB received 10 Probe seqno 10 from Node 13 Level 1 AVG_RSSI -55 at ASN = 9460
[INFO: CNLAB     ] CNLAB received 10 Probe seqno 10 from Node 14 Level 1 AVG_RSSI -57 at ASN = 9462
[INFO: CNLAB     ] CNLAB received 10 Probe seqno 10 from Node 15 Level 1 AVG_RSSI -50 at ASN = 9464
[INFO: CNLAB     ] CNLAB received 10 Probe seqno 10 from Node 16 Level 1 AVG_RSSI -57 at ASN = 9466
[INFO: CNLAB     ] CNLAB received 10 Probe seqno 10 from Node 17 Level 1 AVG_RSSI -53 at ASN = 9468
[INFO: CNLAB     ] CNLAB received 9 Probe seqno 10 from Node 18 Level 1 AVG_RSSI -57 at ASN = 9470
[INFO: CNLAB     ] CNLAB received 10 Probe seqno 10 from Node 19 Level 1 AVG_RSSI -57 at ASN = 9472
[INFO: CNLAB     ] CNLAB received 10 Probe seqno 10 from Node 20 Level 1 AVG_RSSI -54 at ASN = 9474
[INFO: CNLAB     ] CNLAB received 11 Probe seqno 11 from Node 22 Level 1 AVG_RSSI -60 at ASN = 9531
[INFO: CNLAB     ] CNLAB received 11 Probe seqno 11 from Node 25 Level 1 AVG_RSSI -37 at ASN = 9537
[INFO: CNLAB     ] CNLAB received 11 Probe seqno 11 from Node 5 Level 1 AVG_RSSI -47 at ASN = 9550
[INFO: CNLAB     ] CNLAB received 11 Probe seqno 11 from Node 6 Level 1 AVG_RSSI -47 at ASN = 9552
[INFO: CNLAB     ] CNLAB received 11 Probe seqno 11 from Node 7 Level 1 AVG_RSSI -56 at ASN = 9554
[INFO: CNLAB     ] CNLAB received 11 Probe seqno 11 from Node 8 Level 1 AVG_RSSI -58 at ASN = 9556
[INFO: CNLAB     ] CNLAB received 11 Probe seqno 11 from Node 9 Level 1 AVG_RSSI -53 at ASN = 9558
[INFO: CNLAB     ] CNLAB received 11 Probe seqno 11 from Node 10 Level 1 AVG_RSSI -50 at ASN = 9560
[INFO: CNLAB     ] CNLAB received 11 Probe seqno 11 from Node 13 Level 1 AVG_RSSI -55 at ASN = 9566
[INFO: CNLAB     ] CNLAB received 11 Probe seqno 11 from Node 14 Level 1 AVG_RSSI -57 at ASN = 9568
[INFO: CNLAB     ] CNLAB received 11 Probe seqno 11 from Node 15 Level 1 AVG_RSSI -50 at ASN = 9570
[INFO: CNLAB     ] CNLAB received 11 Probe seqno 11 from Node 16 Level 1 AVG_RSSI -56 at ASN = 9572
[INFO: CNLAB     ] CNLAB received 11 Probe seqno 11 from Node 17 Level 1 AVG_RSSI -53 at ASN = 9574
[INFO: CNLAB     ] CNLAB received 10 Probe seqno 11 from Node 18 Level 1 AVG_RSSI -57 at ASN = 9576
[INFO: CNLAB     ] CNLAB received 11 Probe seqno 11 from Node 19 Level 1 AVG_RSSI -56 at ASN = 9578
[INFO: CNLAB     ] CNLAB received 11 Probe seqno 11 from Node 20 Level 1 AVG_RSSI -54 at ASN = 9580
[INFO: CNLAB     ] CNLAB received 12 Probe seqno 12 from Node 22 Level 1 AVG_RSSI -59 at ASN = 9637
[INFO: CNLAB     ] CNLAB received 12 Probe seqno 12 from Node 25 Level 1 AVG_RSSI -37 at ASN = 9643
[INFO: CNLAB     ] CNLAB received 12 Probe seqno 12 from Node 5 Level 1 AVG_RSSI -47 at ASN = 9656
[INFO: CNLAB     ] CNLAB received 12 Probe seqno 12 from Node 6 Level 1 AVG_RSSI -47 at ASN = 9658
[INFO: CNLAB     ] CNLAB received 12 Probe seqno 12 from Node 7 Level 1 AVG_RSSI -55 at ASN = 9660
[INFO: CNLAB     ] CNLAB received 12 Probe seqno 12 from Node 8 Level 1 AVG_RSSI -58 at ASN = 9662
[INFO: CNLAB     ] CNLAB received 12 Probe seqno 12 from Node 9 Level 1 AVG_RSSI -52 at ASN = 9664
[INFO: CNLAB     ] CNLAB received 12 Probe seqno 12 from Node 10 Level 1 AVG_RSSI -50 at ASN = 9666
[INFO: CNLAB     ] CNLAB received 12 Probe seqno 12 from Node 13 Level 1 AVG_RSSI -55 at ASN = 9672
[INFO: CNLAB     ] CNLAB received 12 Probe seqno 12 from Node 14 Level 1 AVG_RSSI -56 at ASN = 9674
[INFO: CNLAB     ] CNLAB received 12 Probe seqno 12 from Node 15 Level 1 AVG_RSSI -50 at ASN = 9676
[INFO: CNLAB     ] CNLAB received 12 Probe seqno 12 from Node 16 Level 1 AVG_RSSI -56 at ASN = 9678
[INFO: CNLAB     ] CNLAB received 12 Probe seqno 12 from Node 17 Level 1 AVG_RSSI -53 at ASN = 9680
[INFO: CNLAB     ] CNLAB received 11 Probe seqno 12 from Node 18 Level 1 AVG_RSSI -57 at ASN = 9682
[INFO: CNLAB     ] CNLAB received 12 Probe seqno 12 from Node 19 Level 1 AVG_RSSI -56 at ASN = 9684
[INFO: CNLAB     ] CNLAB received 12 Probe seqno 12 from Node 20 Level 1 AVG_RSSI -54 at ASN = 9686
[INFO: CNLAB     ] CNLAB received 13 Probe seqno 13 from Node 22 Level 1 AVG_RSSI -59 at ASN = 9743
[INFO: CNLAB     ] CNLAB received 13 Probe seqno 13 from Node 25 Level 1 AVG_RSSI -37 at ASN = 9749
[INFO: CNLAB     ] CNLAB received 13 Probe seqno 13 from Node 5 Level 1 AVG_RSSI -47 at ASN = 9762
[INFO: CNLAB     ] CNLAB received 13 Probe seqno 13 from Node 6 Level 1 AVG_RSSI -47 at ASN = 9764
[INFO: CNLAB     ] CNLAB received 13 Probe seqno 13 from Node 7 Level 1 AVG_RSSI -55 at ASN = 9766
[INFO: CNLAB     ] CNLAB received 13 Probe seqno 13 from Node 8 Level 1 AVG_RSSI -58 at ASN = 9768
[INFO: CNLAB     ] CNLAB received 13 Probe seqno 13 from Node 9 Level 1 AVG_RSSI -52 at ASN = 9770
[INFO: CNLAB     ] CNLAB received 13 Probe seqno 13 from Node 10 Level 1 AVG_RSSI -50 at ASN = 9772
[INFO: CNLAB     ] CNLAB received 13 Probe seqno 13 from Node 13 Level 1 AVG_RSSI -54 at ASN = 9778
[INFO: CNLAB     ] CNLAB received 13 Probe seqno 13 from Node 14 Level 1 AVG_RSSI -56 at ASN = 9780
[INFO: CNLAB     ] CNLAB received 13 Probe seqno 13 from Node 15 Level 1 AVG_RSSI -50 at ASN = 9782
[INFO: CNLAB     ] CNLAB received 13 Probe seqno 13 from Node 16 Level 1 AVG_RSSI -56 at ASN = 9784
[INFO: CNLAB     ] CNLAB received 13 Probe seqno 13 from Node 17 Level 1 AVG_RSSI -53 at ASN = 9786
[INFO: CNLAB     ] CNLAB received 12 Probe seqno 13 from Node 18 Level 1 AVG_RSSI -57 at ASN = 9788
[INFO: CNLAB     ] CNLAB received 13 Probe seqno 13 from Node 19 Level 1 AVG_RSSI -55 at ASN = 9790
[INFO: CNLAB     ] CNLAB received 13 Probe seqno 13 from Node 20 Level 1 AVG_RSSI -54 at ASN = 9792
[INFO: CNLAB     ] CNLAB received 14 Probe seqno 14 from Node 22 Level 1 AVG_RSSI -59 at ASN = 9849
[INFO: CNLAB     ] CNLAB received 14 Probe seqno 14 from Node 25 Level 1 AVG_RSSI -37 at ASN = 9855
[INFO: CNLAB     ] CNLAB received 14 Probe seqno 14 from Node 5 Level 1 AVG_RSSI -47 at ASN = 9868
[INFO: CNLAB     ] CNLAB received 14 Probe seqno 14 from Node 6 Level 1 AVG_RSSI -47 at ASN = 9870
[INFO: CNLAB     ] CNLAB received 14 Probe seqno 14 from Node 7 Level 1 AVG_RSSI -55 at ASN = 9872
[INFO: CNLAB     ] CNLAB received 14 Probe seqno 14 from Node 8 Level 1 AVG_RSSI -58 at ASN = 9874
[INFO: CNLAB     ] CNLAB received 14 Probe seqno 14 from Node 9 Level 1 AVG_RSSI -51 at ASN = 9876
[INFO: CNLAB     ] CNLAB received 14 Probe seqno 14 from Node 10 Level 1 AVG_RSSI -50 at ASN = 9878
[INFO: CNLAB     ] CNLAB received 14 Probe seqno 14 from Node 13 Level 1 AVG_RSSI -54 at ASN = 9884
[INFO: CNLAB     ] CNLAB received 14 Probe seqno 14 from Node 14 Level 1 AVG_RSSI -56 at ASN = 9886
[INFO: CNLAB     ] CNLAB received 14 Probe seqno 14 from Node 15 Level 1 AVG_RSSI -50 at ASN = 9888
[INFO: CNLAB     ] CNLAB received 14 Probe seqno 14 from Node 16 Level 1 AVG_RSSI -56 at ASN = 9890
[INFO: CNLAB     ] CNLAB received 14 Probe seqno 14 from Node 17 Level 1 AVG_RSSI -53 at ASN = 9892
[INFO: CNLAB     ] CNLAB received 13 Probe seqno 14 from Node 18 Level 1 AVG_RSSI -56 at ASN = 9894
[INFO: CNLAB     ] CNLAB received 14 Probe seqno 14 from Node 19 Level 1 AVG_RSSI -54 at ASN = 9896
[INFO: CNLAB     ] CNLAB received 14 Probe seqno 14 from Node 20 Level 1 AVG_RSSI -54 at ASN = 9898
[INFO: CNLAB     ] CNLAB received 15 Probe seqno 15 from Node 22 Level 1 AVG_RSSI -59 at ASN = 9955
[INFO: CNLAB     ] CNLAB received 15 Probe seqno 15 from Node 25 Level 1 AVG_RSSI -37 at ASN = 9961
[INFO: CNLAB     ] CNLAB received 15 Probe seqno 15 from Node 5 Level 1 AVG_RSSI -47 at ASN = 9974
[INFO: CNLAB     ] CNLAB received 15 Probe seqno 15 from Node 6 Level 1 AVG_RSSI -47 at ASN = 9976
[INFO: CNLAB     ] CNLAB received 15 Probe seqno 15 from Node 7 Level 1 AVG_RSSI -55 at ASN = 9978
[INFO: CNLAB     ] CNLAB received 15 Probe seqno 15 from Node 8 Level 1 AVG_RSSI -58 at ASN = 9980
[INFO: CNLAB     ] CNLAB received 15 Probe seqno 15 from Node 9 Level 1 AVG_RSSI -51 at ASN = 9982
[INFO: CNLAB     ] CNLAB received 15 Probe seqno 15 from Node 10 Level 1 AVG_RSSI -50 at ASN = 9984
[INFO: CNLAB     ] CNLAB received 15 Probe seqno 15 from Node 13 Level 1 AVG_RSSI -54 at ASN = 9990
[INFO: CNLAB     ] CNLAB received 15 Probe seqno 15 from Node 14 Level 1 AVG_RSSI -56 at ASN = 9992
[INFO: CNLAB     ] CNLAB received 15 Probe seqno 15 from Node 15 Level 1 AVG_RSSI -50 at ASN = 9994
[INFO: CNLAB     ] CNLAB received 15 Probe seqno 15 from Node 16 Level 1 AVG_RSSI -56 at ASN = 9996
[INFO: CNLAB     ] CNLAB received 15 Probe seqno 15 from Node 17 Level 1 AVG_RSSI -53 at ASN = 9998
[INFO: CNLAB     ] CNLAB received 14 Probe seqno 15 from Node 18 Level 1 AVG_RSSI -56 at ASN = 10000
[INFO: CNLAB     ] CNLAB received 15 Probe seqno 15 from Node 19 Level 1 AVG_RSSI -54 at ASN = 10002
[INFO: CNLAB     ] CNLAB received 15 Probe seqno 15 from Node 20 Level 1 AVG_RSSI -54 at ASN = 10004
[INFO: CNLAB     ] CNLAB received 16 Probe seqno 16 from Node 20 Level 1 AVG_RSSI -54 at ASN = 10057
[INFO: CNLAB     ] CNLAB received 16 Probe seqno 16 from Node 22 Level 1 AVG_RSSI -59 at ASN = 10061
[INFO: CNLAB     ] CNLAB received 16 Probe seqno 16 from Node 25 Level 1 AVG_RSSI -37 at ASN = 10067
[INFO: CNLAB     ] CNLAB received 16 Probe seqno 16 from Node 5 Level 1 AVG_RSSI -47 at ASN = 10080
[INFO: CNLAB     ] CNLAB received 16 Probe seqno 16 from Node 6 Level 1 AVG_RSSI -47 at ASN = 10082
[INFO: CNLAB     ] CNLAB received 16 Probe seqno 16 from Node 7 Level 1 AVG_RSSI -55 at ASN = 10084
[INFO: CNLAB     ] CNLAB received 16 Probe seqno 16 from Node 8 Level 1 AVG_RSSI -58 at ASN = 10086
[INFO: CNLAB     ] CNLAB received 16 Probe seqno 16 from Node 9 Level 1 AVG_RSSI -51 at ASN = 10088
[INFO: CNLAB     ] CNLAB received 16 Probe seqno 16 from Node 10 Level 1 AVG_RSSI -50 at ASN = 10090
[INFO: CNLAB     ] CNLAB received 16 Probe seqno 16 from Node 13 Level 1 AVG_RSSI -54 at ASN = 10096
[INFO: CNLAB     ] CNLAB received 16 Probe seqno 16 from Node 14 Level 1 AVG_RSSI -56 at ASN = 10098
[INFO: CNLAB     ] CNLAB received 16 Probe seqno 16 from Node 15 Level 1 AVG_RSSI -50 at ASN = 10100
[INFO: CNLAB     ] CNLAB received 16 Probe seqno 16 from Node 16 Level 1 AVG_RSSI -56 at ASN = 10102
[INFO: CNLAB     ] CNLAB received 16 Probe seqno 16 from Node 17 Level 1 AVG_RSSI -53 at ASN = 10104
[INFO: CNLAB     ] CNLAB received 15 Probe seqno 16 from Node 18 Level 1 AVG_RSSI -56 at ASN = 10106
[INFO: CNLAB     ] CNLAB received 16 Probe seqno 16 from Node 19 Level 1 AVG_RSSI -54 at ASN = 10108
[INFO: CNLAB     ] CNLAB received 17 Probe seqno 17 from Node 20 Level 1 AVG_RSSI -54 at ASN = 10163
[INFO: CNLAB     ] CNLAB received 17 Probe seqno 17 from Node 22 Level 1 AVG_RSSI -59 at ASN = 10167
[INFO: CNLAB     ] CNLAB received 17 Probe seqno 17 from Node 25 Level 1 AVG_RSSI -37 at ASN = 10173
[INFO: CNLAB     ] CNLAB received 17 Probe seqno 17 from Node 5 Level 1 AVG_RSSI -47 at ASN = 10186
[INFO: CNLAB     ] CNLAB received 17 Probe seqno 17 from Node 6 Level 1 AVG_RSSI -47 at ASN = 10188
[INFO: CNLAB     ] CNLAB received 17 Probe seqno 17 from Node 7 Level 1 AVG_RSSI -54 at ASN = 10190
[INFO: CNLAB     ] CNLAB received 17 Probe seqno 17 from Node 8 Level 1 AVG_RSSI -58 at ASN = 10192
[INFO: CNLAB     ] CNLAB received 17 Probe seqno 17 from Node 9 Level 1 AVG_RSSI -51 at ASN = 10194
[INFO: CNLAB     ] CNLAB received 17 Probe seqno 17 from Node 10 Level 1 AVG_RSSI -50 at ASN = 10196
[INFO: CNLAB     ] CNLAB received 17 Probe seqno 17 from Node 13 Level 1 AVG_RSSI -54 at ASN = 10202
[INFO: CNLAB     ] CNLAB received 17 Probe seqno 17 from Node 14 Level 1 AVG_RSSI -56 at ASN = 10204
[INFO: CNLAB     ] CNLAB received 17 Probe seqno 17 from Node 15 Level 1 AVG_RSSI -50 at ASN = 10206
[INFO: CNLAB     ] CNLAB received 17 Probe seqno 17 from Node 16 Level 1 AVG_RSSI -56 at ASN = 10208
[INFO: CNLAB     ] CNLAB received 17 Probe seqno 17 from Node 17 Level 1 AVG_RSSI -53 at ASN = 10210
[INFO: CNLAB     ] CNLAB received 16 Probe seqno 17 from Node 18 Level 1 AVG_RSSI -56 at ASN = 10212
[INFO: CNLAB     ] CNLAB received 17 Probe seqno 17 from Node 19 Level 1 AVG_RSSI -54 at ASN = 10214
[INFO: CNLAB     ] CNLAB received 18 Probe seqno 18 from Node 20 Level 1 AVG_RSSI -54 at ASN = 10269
[INFO: CNLAB     ] CNLAB received 18 Probe seqno 18 from Node 22 Level 1 AVG_RSSI -59 at ASN = 10273
[INFO: CNLAB     ] CNLAB received 18 Probe seqno 18 from Node 25 Level 1 AVG_RSSI -37 at ASN = 10279
[INFO: CNLAB     ] CNLAB received 18 Probe seqno 18 from Node 5 Level 1 AVG_RSSI -47 at ASN = 10292
[INFO: CNLAB     ] CNLAB received 18 Probe seqno 18 from Node 6 Level 1 AVG_RSSI -47 at ASN = 10294
[INFO: CNLAB     ] CNLAB received 18 Probe seqno 18 from Node 7 Level 1 AVG_RSSI -54 at ASN = 10296
[INFO: CNLAB     ] CNLAB received 18 Probe seqno 18 from Node 8 Level 1 AVG_RSSI -58 at ASN = 10298
[INFO: CNLAB     ] CNLAB received 18 Probe seqno 18 from Node 9 Level 1 AVG_RSSI -51 at ASN = 10300
[INFO: CNLAB     ] CNLAB received 18 Probe seqno 18 from Node 10 Level 1 AVG_RSSI -50 at ASN = 10302
[INFO: CNLAB     ] CNLAB received 18 Probe seqno 18 from Node 13 Level 1 AVG_RSSI -54 at ASN = 10308
[INFO: CNLAB     ] CNLAB received 18 Probe seqno 18 from Node 14 Level 1 AVG_RSSI -56 at ASN = 10310
[INFO: CNLAB     ] CNLAB received 18 Probe seqno 18 from Node 15 Level 1 AVG_RSSI -50 at ASN = 10312
[INFO: CNLAB     ] CNLAB received 18 Probe seqno 18 from Node 16 Level 1 AVG_RSSI -56 at ASN = 10314
[INFO: CNLAB     ] CNLAB received 18 Probe seqno 18 from Node 17 Level 1 AVG_RSSI -53 at ASN = 10316
[INFO: CNLAB     ] CNLAB received 17 Probe seqno 18 from Node 18 Level 1 AVG_RSSI -56 at ASN = 10318
[INFO: CNLAB     ] CNLAB received 18 Probe seqno 18 from Node 19 Level 1 AVG_RSSI -53 at ASN = 10320
[INFO: CNLAB     ] CNLAB received 19 Probe seqno 19 from Node 20 Level 1 AVG_RSSI -54 at ASN = 10375
[INFO: CNLAB     ] CNLAB received 19 Probe seqno 19 from Node 22 Level 1 AVG_RSSI -59 at ASN = 10379
[INFO: CNLAB     ] CNLAB received 19 Probe seqno 19 from Node 25 Level 1 AVG_RSSI -37 at ASN = 10385
[INFO: CNLAB     ] CNLAB received 19 Probe seqno 19 from Node 5 Level 1 AVG_RSSI -47 at ASN = 10398
[INFO: CNLAB     ] CNLAB received 19 Probe seqno 19 from Node 6 Level 1 AVG_RSSI -47 at ASN = 10400
[INFO: CNLAB     ] CNLAB received 19 Probe seqno 19 from Node 7 Level 1 AVG_RSSI -54 at ASN = 10402
[INFO: CNLAB     ] CNLAB received 19 Probe seqno 19 from Node 8 Level 1 AVG_RSSI -58 at ASN = 10404
[INFO: CNLAB     ] CNLAB received 19 Probe seqno 19 from Node 9 Level 1 AVG_RSSI -51 at ASN = 10406
[INFO: CNLAB     ] CNLAB received 19 Probe seqno 19 from Node 10 Level 1 AVG_RSSI -50 at ASN = 10408
[INFO: CNLAB     ] CNLAB received 19 Probe seqno 19 from Node 13 Level 1 AVG_RSSI -54 at ASN = 10414
[INFO: CNLAB     ] CNLAB received 19 Probe seqno 19 from Node 14 Level 1 AVG_RSSI -56 at ASN = 10416
[INFO: CNLAB     ] CNLAB received 19 Probe seqno 19 from Node 15 Level 1 AVG_RSSI -50 at ASN = 10418
[INFO: CNLAB     ] CNLAB received 19 Probe seqno 19 from Node 16 Level 1 AVG_RSSI -56 at ASN = 10420
[INFO: CNLAB     ] CNLAB received 19 Probe seqno 19 from Node 17 Level 1 AVG_RSSI -53 at ASN = 10422
[INFO: CNLAB     ] CNLAB received 18 Probe seqno 19 from Node 18 Level 1 AVG_RSSI -56 at ASN = 10424
[INFO: CNLAB     ] CNLAB received 19 Probe seqno 19 from Node 19 Level 1 AVG_RSSI -53 at ASN = 10426
[INFO: CNLAB     ] CNLAB received 20 Probe seqno 20 from Node 20 Level 1 AVG_RSSI -54 at ASN = 10481
[INFO: CNLAB     ] CNLAB received 20 Probe seqno 20 from Node 22 Level 1 AVG_RSSI -59 at ASN = 10485
[INFO: CNLAB     ] CNLAB received 20 Probe seqno 20 from Node 25 Level 1 AVG_RSSI -37 at ASN = 10491
[INFO: CNLAB     ] CNLAB received 20 Probe seqno 20 from Node 5 Level 1 AVG_RSSI -47 at ASN = 10504
[INFO: CNLAB     ] CNLAB received 20 Probe seqno 20 from Node 6 Level 1 AVG_RSSI -47 at ASN = 10506
[INFO: CNLAB     ] CNLAB received 20 Probe seqno 20 from Node 7 Level 1 AVG_RSSI -54 at ASN = 10508
[INFO: CNLAB     ] CNLAB received 20 Probe seqno 20 from Node 9 Level 1 AVG_RSSI -51 at ASN = 10512
[INFO: CNLAB     ] CNLAB received 20 Probe seqno 20 from Node 10 Level 1 AVG_RSSI -50 at ASN = 10514
[INFO: CNLAB     ] CNLAB received 20 Probe seqno 20 from Node 13 Level 1 AVG_RSSI -54 at ASN = 10520
[INFO: CNLAB     ] CNLAB received 20 Probe seqno 20 from Node 14 Level 1 AVG_RSSI -56 at ASN = 10522
[INFO: CNLAB     ] CNLAB received 20 Probe seqno 20 from Node 15 Level 1 AVG_RSSI -50 at ASN = 10524
[INFO: CNLAB     ] CNLAB received 20 Probe seqno 20 from Node 16 Level 1 AVG_RSSI -56 at ASN = 10526
[INFO: CNLAB     ] CNLAB received 20 Probe seqno 20 from Node 17 Level 1 AVG_RSSI -53 at ASN = 10528
[INFO: CNLAB     ] CNLAB received 19 Probe seqno 20 from Node 18 Level 1 AVG_RSSI -56 at ASN = 10530
[INFO: CNLAB     ] CNLAB received 20 Probe seqno 20 from Node 19 Level 1 AVG_RSSI -52 at ASN = 10532
[INFO: CNLAB     ] CNLAB received 21 Probe seqno 21 from Node 20 Level 1 AVG_RSSI -54 at ASN = 10587
[INFO: CNLAB     ] CNLAB received 21 Probe seqno 21 from Node 22 Level 1 AVG_RSSI -59 at ASN = 10591
[INFO: CNLAB     ] CNLAB received 21 Probe seqno 21 from Node 25 Level 1 AVG_RSSI -37 at ASN = 10597
[INFO: CNLAB     ] CNLAB received 21 Probe seqno 21 from Node 5 Level 1 AVG_RSSI -47 at ASN = 10610
[INFO: CNLAB     ] CNLAB received 21 Probe seqno 21 from Node 6 Level 1 AVG_RSSI -47 at ASN = 10612
[INFO: CNLAB     ] CNLAB received 21 Probe seqno 21 from Node 7 Level 1 AVG_RSSI -54 at ASN = 10614
[INFO: CNLAB     ] CNLAB received 20 Probe seqno 21 from Node 8 Level 1 AVG_RSSI -58 at ASN = 10616
[INFO: CNLAB     ] CNLAB received 21 Probe seqno 21 from Node 9 Level 1 AVG_RSSI -51 at ASN = 10618
[INFO: CNLAB     ] CNLAB received 21 Probe seqno 21 from Node 10 Level 1 AVG_RSSI -50 at ASN = 10620
[INFO: CNLAB     ] CNLAB received 21 Probe seqno 21 from Node 13 Level 1 AVG_RSSI -54 at ASN = 10626
[INFO: CNLAB     ] CNLAB received 21 Probe seqno 21 from Node 14 Level 1 AVG_RSSI -56 at ASN = 10628
[INFO: CNLAB     ] CNLAB received 21 Probe seqno 21 from Node 15 Level 1 AVG_RSSI -50 at ASN = 10630
[INFO: CNLAB     ] CNLAB received 21 Probe seqno 21 from Node 16 Level 1 AVG_RSSI -56 at ASN = 10632
[INFO: CNLAB     ] CNLAB received 21 Probe seqno 21 from Node 17 Level 1 AVG_RSSI -53 at ASN = 10634
[INFO: CNLAB     ] CNLAB received 20 Probe seqno 21 from Node 18 Level 1 AVG_RSSI -56 at ASN = 10636
[INFO: CNLAB     ] CNLAB received 21 Probe seqno 21 from Node 19 Level 1 AVG_RSSI -52 at ASN = 10638
[INFO: CNLAB     ] CNLAB received 22 Probe seqno 22 from Node 20 Level 1 AVG_RSSI -54 at ASN = 10693
[INFO: CNLAB     ] CNLAB received 22 Probe seqno 22 from Node 22 Level 1 AVG_RSSI -59 at ASN = 10697
[INFO: CNLAB     ] CNLAB received 22 Probe seqno 22 from Node 25 Level 1 AVG_RSSI -37 at ASN = 10703
[INFO: CNLAB     ] CNLAB received 22 Probe seqno 22 from Node 5 Level 1 AVG_RSSI -47 at ASN = 10716
[INFO: CNLAB     ] CNLAB received 22 Probe seqno 22 from Node 6 Level 1 AVG_RSSI -47 at ASN = 10718
[INFO: CNLAB     ] CNLAB received 22 Probe seqno 22 from Node 7 Level 1 AVG_RSSI -54 at ASN = 10720
[INFO: CNLAB     ] CNLAB received 21 Probe seqno 22 from Node 8 Level 1 AVG_RSSI -58 at ASN = 10722
[INFO: CNLAB     ] CNLAB received 22 Probe seqno 22 from Node 9 Level 1 AVG_RSSI -51 at ASN = 10724
[INFO: CNLAB     ] CNLAB received 22 Probe seqno 22 from Node 10 Level 1 AVG_RSSI -50 at ASN = 10726
[INFO: CNLAB     ] CNLAB received 22 Probe seqno 22 from Node 13 Level 1 AVG_RSSI -54 at ASN = 10732
[INFO: CNLAB     ] CNLAB received 22 Probe seqno 22 from Node 14 Level 1 AVG_RSSI -56 at ASN = 10734
[INFO: CNLAB     ] CNLAB received 22 Probe seqno 22 from Node 15 Level 1 AVG_RSSI -50 at ASN = 10736
[INFO: CNLAB     ] CNLAB received 22 Probe seqno 22 from Node 16 Level 1 AVG_RSSI -56 at ASN = 10738
[INFO: CNLAB     ] CNLAB received 22 Probe seqno 22 from Node 17 Level 1 AVG_RSSI -53 at ASN = 10740
[INFO: CNLAB     ] CNLAB received 21 Probe seqno 22 from Node 18 Level 1 AVG_RSSI -55 at ASN = 10742
[INFO: CNLAB     ] CNLAB received 22 Probe seqno 22 from Node 19 Level 1 AVG_RSSI -52 at ASN = 10744
[INFO: CNLAB     ] CNLAB received 23 Probe seqno 23 from Node 19 Level 1 AVG_RSSI -52 at ASN = 10797
[INFO: CNLAB     ] CNLAB received 23 Probe seqno 23 from Node 20 Level 1 AVG_RSSI -54 at ASN = 10799
[INFO: CNLAB     ] CNLAB received 23 Probe seqno 23 from Node 22 Level 1 AVG_RSSI -59 at ASN = 10803
[INFO: CNLAB     ] CNLAB received 23 Probe seqno 23 from Node 25 Level 1 AVG_RSSI -37 at ASN = 10809
[INFO: CNLAB     ] CNLAB received 23 Probe seqno 23 from Node 5 Level 1 AVG_RSSI -47 at ASN = 10822
[INFO: CNLAB     ] CNLAB received 23 Probe seqno 23 from Node 6 Level 1 AVG_RSSI -47 at ASN = 10824
[INFO: CNLAB     ] CNLAB received 23 Probe seqno 23 from Node 7 Level 1 AVG_RSSI -54 at ASN = 10826
[INFO: CNLAB     ] CNLAB received 22 Probe seqno 23 from Node 8 Level 1 AVG_RSSI -58 at ASN = 10828
[INFO: CNLAB     ] CNLAB received 23 Probe seqno 23 from Node 9 Level 1 AVG_RSSI -51 at ASN = 10830
[INFO: CNLAB     ] CNLAB received 23 Probe seqno 23 from Node 10 Level 1 AVG_RSSI -50 at ASN = 10832
[INFO: CNLAB     ] CNLAB received 23 Probe seqno 23 from Node 13 Level 1 AVG_RSSI -54 at ASN = 10838
[INFO: CNLAB     ] CNLAB received 23 Probe seqno 23 from Node 14 Level 1 AVG_RSSI -56 at ASN = 10840
[INFO: CNLAB     ] CNLAB received 23 Probe seqno 23 from Node 15 Level 1 AVG_RSSI -49 at ASN = 10842
[INFO: CNLAB     ] CNLAB received 23 Probe seqno 23 from Node 16 Level 1 AVG_RSSI -56 at ASN = 10844
[INFO: CNLAB     ] CNLAB received 23 Probe seqno 23 from Node 17 Level 1 AVG_RSSI -53 at ASN = 10846
[INFO: CNLAB     ] CNLAB received 22 Probe seqno 23 from Node 18 Level 1 AVG_RSSI -54 at ASN = 10848
[INFO: CNLAB     ] CNLAB received 24 Probe seqno 24 from Node 19 Level 1 AVG_RSSI -52 at ASN = 10903
[INFO: CNLAB     ] CNLAB received 24 Probe seqno 24 from Node 20 Level 1 AVG_RSSI -54 at ASN = 10905
[INFO: CNLAB     ] CNLAB received 24 Probe seqno 24 from Node 22 Level 1 AVG_RSSI -59 at ASN = 10909
[INFO: CNLAB     ] CNLAB received 24 Probe seqno 24 from Node 25 Level 1 AVG_RSSI -37 at ASN = 10915
[INFO: CNLAB     ] CNLAB received 24 Probe seqno 24 from Node 5 Level 1 AVG_RSSI -47 at ASN = 10928
[INFO: CNLAB     ] CNLAB received 24 Probe seqno 24 from Node 6 Level 1 AVG_RSSI -47 at ASN = 10930
[INFO: CNLAB     ] CNLAB received 24 Probe seqno 24 from Node 7 Level 1 AVG_RSSI -54 at ASN = 10932
[INFO: CNLAB     ] CNLAB received 23 Probe seqno 24 from Node 8 Level 1 AVG_RSSI -58 at ASN = 10934
[INFO: CNLAB     ] CNLAB received 24 Probe seqno 24 from Node 9 Level 1 AVG_RSSI -51 at ASN = 10936
[INFO: CNLAB     ] CNLAB received 24 Probe seqno 24 from Node 10 Level 1 AVG_RSSI -49 at ASN = 10938
[INFO: CNLAB     ] CNLAB received 24 Probe seqno 24 from Node 13 Level 1 AVG_RSSI -54 at ASN = 10944
[INFO: CNLAB     ] CNLAB received 24 Probe seqno 24 from Node 14 Level 1 AVG_RSSI -56 at ASN = 10946
[INFO: CNLAB     ] CNLAB received 24 Probe seqno 24 from Node 15 Level 1 AVG_RSSI -49 at ASN = 10948
[INFO: CNLAB     ] CNLAB received 24 Probe seqno 24 from Node 16 Level 1 AVG_RSSI -56 at ASN = 10950
[INFO: CNLAB     ] CNLAB received 24 Probe seqno 24 from Node 17 Level 1 AVG_RSSI -53 at ASN = 10952
[INFO: CNLAB     ] CNLAB received 23 Probe seqno 24 from Node 18 Level 1 AVG_RSSI -54 at ASN = 10954
[INFO: CNLAB     ] CNLAB received 25 Probe seqno 25 from Node 19 Level 1 AVG_RSSI -51 at ASN = 11009
[INFO: CNLAB     ] CNLAB received 25 Probe seqno 25 from Node 20 Level 1 AVG_RSSI -54 at ASN = 11011
[INFO: CNLAB     ] CNLAB received 25 Probe seqno 25 from Node 22 Level 1 AVG_RSSI -59 at ASN = 11015
[INFO: CNLAB     ] CNLAB received 25 Probe seqno 25 from Node 25 Level 1 AVG_RSSI -37 at ASN = 11021
[INFO: CNLAB     ] CNLAB received 25 Probe seqno 25 from Node 5 Level 1 AVG_RSSI -47 at ASN = 11034
[INFO: CNLAB     ] CNLAB received 25 Probe seqno 25 from Node 6 Level 1 AVG_RSSI -47 at ASN = 11036
[INFO: CNLAB     ] CNLAB received 25 Probe seqno 25 from Node 7 Level 1 AVG_RSSI -54 at ASN = 11038
[INFO: CNLAB     ] CNLAB received 24 Probe seqno 25 from Node 8 Level 1 AVG_RSSI -58 at ASN = 11040
[INFO: CNLAB     ] CNLAB received 25 Probe seqno 25 from Node 9 Level 1 AVG_RSSI -51 at ASN = 11042
[INFO: CNLAB     ] CNLAB received 25 Probe seqno 25 from Node 10 Level 1 AVG_RSSI -49 at ASN = 11044
[INFO: CNLAB     ] CNLAB received 25 Probe seqno 25 from Node 13 Level 1 AVG_RSSI -54 at ASN = 11050
[INFO: CNLAB     ] CNLAB received 25 Probe seqno 25 from Node 14 Level 1 AVG_RSSI -56 at ASN = 11052
[INFO: CNLAB     ] CNLAB received 25 Probe seqno 25 from Node 15 Level 1 AVG_RSSI -49 at ASN = 11054
[INFO: CNLAB     ] CNLAB received 25 Probe seqno 25 from Node 17 Level 1 AVG_RSSI -53 at ASN = 11058
[INFO: CNLAB     ] CNLAB received 24 Probe seqno 25 from Node 18 Level 1 AVG_RSSI -53 at ASN = 11060
[INFO: CNLAB     ] CNLAB received 26 Probe seqno 26 from Node 19 Level 1 AVG_RSSI -51 at ASN = 11115
[INFO: CNLAB     ] CNLAB received 26 Probe seqno 26 from Node 20 Level 1 AVG_RSSI -53 at ASN = 11117
[INFO: CNLAB     ] CNLAB received 26 Probe seqno 26 from Node 22 Level 1 AVG_RSSI -59 at ASN = 11121
[INFO: CNLAB     ] CNLAB received 26 Probe seqno 26 from Node 25 Level 1 AVG_RSSI -37 at ASN = 11127
[INFO: CNLAB     ] CNLAB received 26 Probe seqno 26 from Node 5 Level 1 AVG_RSSI -46 at ASN = 11140
[INFO: CNLAB     ] CNLAB received 26 Probe seqno 26 from Node 6 Level 1 AVG_RSSI -47 at ASN = 11142
[INFO: CNLAB     ] CNLAB received 26 Probe seqno 26 from Node 7 Level 1 AVG_RSSI -54 at ASN = 11144
[INFO: CNLAB     ] CNLAB received 25 Probe seqno 26 from Node 8 Level 1 AVG_RSSI -58 at ASN = 11146
[INFO: CNLAB     ] CNLAB received 26 Probe seqno 26 from Node 9 Level 1 AVG_RSSI -51 at ASN = 11148
[INFO: CNLAB     ] CNLAB received 26 Probe seqno 26 from Node 10 Level 1 AVG_RSSI -49 at ASN = 11150
[INFO: CNLAB     ] CNLAB received 26 Probe seqno 26 from Node 13 Level 1 AVG_RSSI -53 at ASN = 11156
[INFO: CNLAB     ] CNLAB received 26 Probe seqno 26 from Node 14 Level 1 AVG_RSSI -56 at ASN = 11158
[INFO: CNLAB     ] CNLAB received 26 Probe seqno 26 from Node 15 Level 1 AVG_RSSI -49 at ASN = 11160
[INFO: CNLAB     ] CNLAB received 25 Probe seqno 26 from Node 16 Level 1 AVG_RSSI -56 at ASN = 11162
[INFO: CNLAB     ] CNLAB received 26 Probe seqno 26 from Node 17 Level 1 AVG_RSSI -53 at ASN = 11164
[INFO: CNLAB     ] CNLAB received 25 Probe seqno 26 from Node 18 Level 1 AVG_RSSI -52 at ASN = 11166
[INFO: CNLAB     ] CNLAB received 27 Probe seqno 27 from Node 19 Level 1 AVG_RSSI -51 at ASN = 11221
[INFO: CNLAB     ] CNLAB received 27 Probe seqno 27 from Node 20 Level 1 AVG_RSSI -52 at ASN = 11223
[INFO: CNLAB     ] CNLAB received 27 Probe seqno 27 from Node 22 Level 1 AVG_RSSI -59 at ASN = 11227
[INFO: CNLAB     ] CNLAB received 27 Probe seqno 27 from Node 25 Level 1 AVG_RSSI -37 at ASN = 11233
[INFO: CNLAB     ] CNLAB received 27 Probe seqno 27 from Node 5 Level 1 AVG_RSSI -46 at ASN = 11246
[INFO: CNLAB     ] CNLAB received 27 Probe seqno 27 from Node 6 Level 1 AVG_RSSI -47 at ASN = 11248
[INFO: CNLAB     ] CNLAB received 27 Probe seqno 27 from Node 7 Level 1 AVG_RSSI -54 at ASN = 11250
[INFO: CNLAB     ] CNLAB received 26 Probe seqno 27 from Node 8 Level 1 AVG_RSSI -58 at ASN = 11252
[INFO: CNLAB     ] CNLAB received 27 Probe seqno 27 from Node 9 Level 1 AVG_RSSI -51 at ASN = 11254
[INFO: CNLAB     ] CNLAB received 27 Probe seqno 27 from Node 10 Level 1 AVG_RSSI -49 at ASN = 11256
[INFO: CNLAB     ] CNLAB received 27 Probe seqno 27 from Node 13 Level 1 AVG_RSSI -53 at ASN = 11262
[INFO: CNLAB     ] CNLAB received 27 Probe seqno 27 from Node 14 Level 1 AVG_RSSI -56 at ASN = 11264
[INFO: CNLAB     ] CNLAB received 27 Probe seqno 27 from Node 15 Level 1 AVG_RSSI -49 at ASN = 11266
[INFO: CNLAB     ] CNLAB received 26 Probe seqno 27 from Node 16 Level 1 AVG_RSSI -56 at ASN = 11268
[INFO: CNLAB     ] CNLAB received 27 Probe seqno 27 from Node 17 Level 1 AVG_RSSI -53 at ASN = 11270
[INFO: CNLAB     ] CNLAB received 26 Probe seqno 27 from Node 18 Level 1 AVG_RSSI -51 at ASN = 11272
[INFO: CNLAB     ] CNLAB received 28 Probe seqno 28 from Node 19 Level 1 AVG_RSSI -51 at ASN = 11327
[INFO: CNLAB     ] CNLAB received 28 Probe seqno 28 from Node 20 Level 1 AVG_RSSI -52 at ASN = 11329
[INFO: CNLAB     ] CNLAB received 28 Probe seqno 28 from Node 22 Level 1 AVG_RSSI -59 at ASN = 11333
[INFO: CNLAB     ] CNLAB received 28 Probe seqno 28 from Node 25 Level 1 AVG_RSSI -37 at ASN = 11339
[INFO: CNLAB     ] CNLAB received 28 Probe seqno 28 from Node 5 Level 1 AVG_RSSI -46 at ASN = 11352
[INFO: CNLAB     ] CNLAB received 28 Probe seqno 28 from Node 6 Level 1 AVG_RSSI -47 at ASN = 11354
[INFO: CNLAB     ] CNLAB received 28 Probe seqno 28 from Node 7 Level 1 AVG_RSSI -54 at ASN = 11356
[INFO: CNLAB     ] CNLAB received 27 Probe seqno 28 from Node 8 Level 1 AVG_RSSI -58 at ASN = 11358
[INFO: CNLAB     ] CNLAB received 28 Probe seqno 28 from Node 9 Level 1 AVG_RSSI -51 at ASN = 11360
[INFO: CNLAB     ] CNLAB received 28 Probe seqno 28 from Node 10 Level 1 AVG_RSSI -49 at ASN = 11362
[INFO: CNLAB     ] CNLAB received 28 Probe seqno 28 from Node 13 Level 1 AVG_RSSI -53 at ASN = 11368
[INFO: CNLAB     ] CNLAB received 28 Probe seqno 28 from Node 14 Level 1 AVG_RSSI -56 at ASN = 11370
[INFO: CNLAB     ] CNLAB received 28 Probe seqno 28 from Node 15 Level 1 AVG_RSSI -49 at ASN = 11372
[INFO: CNLAB     ] CNLAB received 27 Probe seqno 28 from Node 16 Level 1 AVG_RSSI -56 at ASN = 11374
[INFO: CNLAB     ] CNLAB received 28 Probe seqno 28 from Node 17 Level 1 AVG_RSSI -53 at ASN = 11376
[INFO: CNLAB     ] CNLAB received 27 Probe seqno 28 from Node 18 Level 1 AVG_RSSI -50 at ASN = 11378
[INFO: CNLAB     ] CNLAB received 29 Probe seqno 29 from Node 19 Level 1 AVG_RSSI -51 at ASN = 11433
[INFO: CNLAB     ] CNLAB received 29 Probe seqno 29 from Node 20 Level 1 AVG_RSSI -52 at ASN = 11435
[INFO: CNLAB     ] CNLAB received 29 Probe seqno 29 from Node 22 Level 1 AVG_RSSI -59 at ASN = 11439
[INFO: CNLAB     ] CNLAB received 29 Probe seqno 29 from Node 25 Level 1 AVG_RSSI -37 at ASN = 11445
[INFO: CNLAB     ] CNLAB received 29 Probe seqno 29 from Node 5 Level 1 AVG_RSSI -46 at ASN = 11458
[INFO: CNLAB     ] CNLAB received 29 Probe seqno 29 from Node 6 Level 1 AVG_RSSI -47 at ASN = 11460
[INFO: CNLAB     ] CNLAB received 29 Probe seqno 29 from Node 7 Level 1 AVG_RSSI -54 at ASN = 11462
[INFO: CNLAB     ] CNLAB received 28 Probe seqno 29 from Node 8 Level 1 AVG_RSSI -58 at ASN = 11464
[INFO: CNLAB     ] CNLAB received 29 Probe seqno 29 from Node 9 Level 1 AVG_RSSI -51 at ASN = 11466
[INFO: CNLAB     ] CNLAB received 29 Probe seqno 29 from Node 10 Level 1 AVG_RSSI -49 at ASN = 11468
[INFO: CNLAB     ] CNLAB received 29 Probe seqno 29 from Node 13 Level 1 AVG_RSSI -53 at ASN = 11474
[INFO: CNLAB     ] CNLAB received 29 Probe seqno 29 from Node 14 Level 1 AVG_RSSI -56 at ASN = 11476
[INFO: CNLAB     ] CNLAB received 29 Probe seqno 29 from Node 15 Level 1 AVG_RSSI -49 at ASN = 11478
[INFO: CNLAB     ] CNLAB received 28 Probe seqno 29 from Node 16 Level 1 AVG_RSSI -56 at ASN = 11480
[INFO: CNLAB     ] CNLAB received 29 Probe seqno 29 from Node 17 Level 1 AVG_RSSI -52 at ASN = 11482
[INFO: CNLAB     ] CNLAB received 28 Probe seqno 29 from Node 18 Level 1 AVG_RSSI -49 at ASN = 11484
[INFO: CNLAB     ] CNLAB received 29 Probe seqno 30 from Node 18 Level 1 AVG_RSSI -49 at ASN = 11537
[INFO: CNLAB     ] CNLAB received 30 Probe seqno 30 from Node 19 Level 1 AVG_RSSI -51 at ASN = 11539
[INFO: CNLAB     ] CNLAB received 30 Probe seqno 30 from Node 20 Level 1 AVG_RSSI -52 at ASN = 11541
[INFO: CNLAB     ] CNLAB received 30 Probe seqno 30 from Node 22 Level 1 AVG_RSSI -59 at ASN = 11545
[INFO: CNLAB     ] CNLAB received 30 Probe seqno 30 from Node 25 Level 1 AVG_RSSI -37 at ASN = 11551
[INFO: CNLAB     ] CNLAB received 30 Probe seqno 30 from Node 5 Level 1 AVG_RSSI -46 at ASN = 11564
[INFO: CNLAB     ] CNLAB received 30 Probe seqno 30 from Node 6 Level 1 AVG_RSSI -47 at ASN = 11566
[INFO: CNLAB     ] CNLAB received 30 Probe seqno 30 from Node 7 Level 1 AVG_RSSI -54 at ASN = 11568
[INFO: CNLAB     ] CNLAB received 29 Probe seqno 30 from Node 8 Level 1 AVG_RSSI -58 at ASN = 11570
[INFO: CNLAB     ] CNLAB received 30 Probe seqno 30 from Node 9 Level 1 AVG_RSSI -51 at ASN = 11572
[INFO: CNLAB     ] CNLAB received 30 Probe seqno 30 from Node 10 Level 1 AVG_RSSI -49 at ASN = 11574
[INFO: CNLAB     ] CNLAB received 30 Probe seqno 30 from Node 13 Level 1 AVG_RSSI -53 at ASN = 11580
[INFO: CNLAB     ] CNLAB received 30 Probe seqno 30 from Node 14 Level 1 AVG_RSSI -56 at ASN = 11582
[INFO: CNLAB     ] CNLAB received 30 Probe seqno 30 from Node 15 Level 1 AVG_RSSI -49 at ASN = 11584
[INFO: CNLAB     ] CNLAB received 29 Probe seqno 30 from Node 16 Level 1 AVG_RSSI -56 at ASN = 11586
[INFO: CNLAB     ] CNLAB received 30 Probe seqno 30 from Node 17 Level 1 AVG_RSSI -52 at ASN = 11588
[INFO: CNLAB     ] CNLAB received 30 Probe seqno 31 from Node 18 Level 1 AVG_RSSI -49 at ASN = 11643
[INFO: CNLAB     ] CNLAB received 31 Probe seqno 31 from Node 19 Level 1 AVG_RSSI -51 at ASN = 11645
[INFO: CNLAB     ] CNLAB received 31 Probe seqno 31 from Node 20 Level 1 AVG_RSSI -52 at ASN = 11647
[INFO: CNLAB     ] CNLAB received 31 Probe seqno 31 from Node 22 Level 1 AVG_RSSI -59 at ASN = 11651
[INFO: CNLAB     ] CNLAB received 31 Probe seqno 31 from Node 25 Level 1 AVG_RSSI -37 at ASN = 11657
[INFO: CNLAB     ] CNLAB received 31 Probe seqno 31 from Node 5 Level 1 AVG_RSSI -46 at ASN = 11670
[INFO: CNLAB     ] CNLAB received 31 Probe seqno 31 from Node 6 Level 1 AVG_RSSI -47 at ASN = 11672
[INFO: CNLAB     ] CNLAB received 31 Probe seqno 31 from Node 7 Level 1 AVG_RSSI -54 at ASN = 11674
[INFO: CNLAB     ] CNLAB received 30 Probe seqno 31 from Node 8 Level 1 AVG_RSSI -58 at ASN = 11676
[INFO: CNLAB     ] CNLAB received 31 Probe seqno 31 from Node 9 Level 1 AVG_RSSI -51 at ASN = 11678
[INFO: CNLAB     ] CNLAB received 31 Probe seqno 31 from Node 10 Level 1 AVG_RSSI -49 at ASN = 11680
[INFO: CNLAB     ] CNLAB received 31 Probe seqno 31 from Node 13 Level 1 AVG_RSSI -53 at ASN = 11686
[INFO: CNLAB     ] CNLAB received 31 Probe seqno 31 from Node 15 Level 1 AVG_RSSI -49 at ASN = 11690
[INFO: CNLAB     ] CNLAB received 30 Probe seqno 31 from Node 16 Level 1 AVG_RSSI -56 at ASN = 11692
[INFO: CNLAB     ] CNLAB received 31 Probe seqno 31 from Node 17 Level 1 AVG_RSSI -52 at ASN = 11694
[INFO: CNLAB     ] CNLAB received 31 Probe seqno 32 from Node 18 Level 1 AVG_RSSI -49 at ASN = 11749
[INFO: CNLAB     ] CNLAB received 32 Probe seqno 32 from Node 19 Level 1 AVG_RSSI -51 at ASN = 11751
[INFO: CNLAB     ] CNLAB received 32 Probe seqno 32 from Node 20 Level 1 AVG_RSSI -52 at ASN = 11753
[INFO: CNLAB     ] CNLAB received 32 Probe seqno 32 from Node 22 Level 1 AVG_RSSI -58 at ASN = 11757
[INFO: CNLAB     ] CNLAB received 32 Probe seqno 32 from Node 25 Level 1 AVG_RSSI -37 at ASN = 11763
[INFO: CNLAB     ] CNLAB received 32 Probe seqno 32 from Node 5 Level 1 AVG_RSSI -46 at ASN = 11776
[INFO: CNLAB     ] CNLAB received 32 Probe seqno 32 from Node 6 Level 1 AVG_RSSI -47 at ASN = 11778
[INFO: CNLAB     ] CNLAB received 32 Probe seqno 32 from Node 7 Level 1 AVG_RSSI -54 at ASN = 11780
[INFO: CNLAB     ] CNLAB received 31 Probe seqno 32 from Node 8 Level 1 AVG_RSSI -58 at ASN = 11782
[INFO: CNLAB     ] CNLAB received 32 Probe seqno 32 from Node 9 Level 1 AVG_RSSI -51 at ASN = 11784
[INFO: CNLAB     ] CNLAB received 32 Probe seqno 32 from Node 10 Level 1 AVG_RSSI -49 at ASN = 11786
[INFO: CNLAB     ] CNLAB received 32 Probe seqno 32 from Node 13 Level 1 AVG_RSSI -53 at ASN = 11792
[INFO: CNLAB     ] CNLAB received 31 Probe seqno 32 from Node 14 Level 1 AVG_RSSI -56 at ASN = 11794
[INFO: CNLAB     ] CNLAB received 32 Probe seqno 32 from Node 15 Level 1 AVG_RSSI -49 at ASN = 11796
[INFO: CNLAB     ] CNLAB received 31 Probe seqno 32 from Node 16 Level 1 AVG_RSSI -56 at ASN = 11798
[INFO: CNLAB     ] CNLAB received 32 Probe seqno 32 from Node 17 Level 1 AVG_RSSI -52 at ASN = 11800
[INFO: CNLAB     ] CNLAB received 32 Probe seqno 33 from Node 18 Level 1 AVG_RSSI -48 at ASN = 11855
[INFO: CNLAB     ] CNLAB received 33 Probe seqno 33 from Node 19 Level 1 AVG_RSSI -51 at ASN = 11857
[INFO: CNLAB     ] CNLAB received 33 Probe seqno 33 from Node 20 Level 1 AVG_RSSI -52 at ASN = 11859
[INFO: CNLAB     ] CNLAB received 33 Probe seqno 33 from Node 22 Level 1 AVG_RSSI -58 at ASN = 11863
[INFO: CNLAB     ] CNLAB received 33 Probe seqno 33 from Node 25 Level 1 AVG_RSSI -37 at ASN = 11869
[INFO: CNLAB     ] CNLAB received 33 Probe seqno 33 from Node 5 Level 1 AVG_RSSI -46 at ASN = 11882
[INFO: CNLAB     ] CNLAB received 33 Probe seqno 33 from Node 6 Level 1 AVG_RSSI -47 at ASN = 11884
[INFO: CNLAB     ] CNLAB received 33 Probe seqno 33 from Node 7 Level 1 AVG_RSSI -54 at ASN = 11886
[INFO: CNLAB     ] CNLAB received 32 Probe seqno 33 from Node 8 Level 1 AVG_RSSI -58 at ASN = 11888
[INFO: CNLAB     ] CNLAB received 33 Probe seqno 33 from Node 9 Level 1 AVG_RSSI -51 at ASN = 11890
[INFO: CNLAB     ] CNLAB received 33 Probe seqno 33 from Node 10 Level 1 AVG_RSSI -49 at ASN = 11892
[INFO: CNLAB     ] CNLAB received 33 Probe seqno 33 from Node 13 Level 1 AVG_RSSI -53 at ASN = 11898
[INFO: CNLAB     ] CNLAB received 32 Probe seqno 33 from Node 14 Level 1 AVG_RSSI -56 at ASN = 11900
[INFO: CNLAB     ] CNLAB received 33 Probe seqno 33 from Node 15 Level 1 AVG_RSSI -49 at ASN = 11902
[INFO: CNLAB     ] CNLAB received 32 Probe seqno 33 from Node 16 Level 1 AVG_RSSI -56 at ASN = 11904
[INFO: CNLAB     ] CNLAB received 33 Probe seqno 33 from Node 17 Level 1 AVG_RSSI -52 at ASN = 11906
[INFO: CNLAB     ] CNLAB received 33 Probe seqno 34 from Node 18 Level 1 AVG_RSSI -48 at ASN = 11961
[INFO: CNLAB     ] CNLAB received 34 Probe seqno 34 from Node 19 Level 1 AVG_RSSI -51 at ASN = 11963
[INFO: CNLAB     ] CNLAB received 34 Probe seqno 34 from Node 20 Level 1 AVG_RSSI -52 at ASN = 11965
[INFO: CNLAB     ] CNLAB received 34 Probe seqno 34 from Node 22 Level 1 AVG_RSSI -58 at ASN = 11969
[INFO: CNLAB     ] CNLAB received 34 Probe seqno 34 from Node 25 Level 1 AVG_RSSI -37 at ASN = 11975
[INFO: CNLAB     ] CNLAB received 34 Probe seqno 34 from Node 5 Level 1 AVG_RSSI -46 at ASN = 11988
[INFO: CNLAB     ] CNLAB received 34 Probe seqno 34 from Node 6 Level 1 AVG_RSSI -47 at ASN = 11990
[INFO: CNLAB     ] CNLAB received 34 Probe seqno 34 from Node 7 Level 1 AVG_RSSI -54 at ASN = 11992
[INFO: CNLAB     ] CNLAB received 33 Probe seqno 34 from Node 8 Level 1 AVG_RSSI -58 at ASN = 11994
[INFO: CNLAB     ] CNLAB received 34 Probe seqno 34 from Node 9 Level 1 AVG_RSSI -51 at ASN = 11996
[INFO: CNLAB     ] CNLAB received 34 Probe seqno 34 from Node 10 Level 1 AVG_RSSI -48 at ASN = 11998
[INFO: CNLAB     ] CNLAB received 34 Probe seqno 34 from Node 13 Level 1 AVG_RSSI -53 at ASN = 12004
[INFO: CNLAB     ] CNLAB received 33 Probe seqno 34 from Node 14 Level 1 AVG_RSSI -56 at ASN = 12006
[INFO: CNLAB     ] CNLAB received 34 Probe seqno 34 from Node 15 Level 1 AVG_RSSI -49 at ASN = 12008
[INFO: CNLAB     ] CNLAB received 33 Probe seqno 34 from Node 16 Level 1 AVG_RSSI -56 at ASN = 12010
[INFO: CNLAB     ] CNLAB received 34 Probe seqno 34 from Node 17 Level 1 AVG_RSSI -52 at ASN = 12012
[INFO: CNLAB     ] CNLAB received 34 Probe seqno 35 from Node 18 Level 1 AVG_RSSI -48 at ASN = 12067
[INFO: CNLAB     ] CNLAB received 35 Probe seqno 35 from Node 19 Level 1 AVG_RSSI -51 at ASN = 12069
[INFO: CNLAB     ] CNLAB received 35 Probe seqno 35 from Node 20 Level 1 AVG_RSSI -52 at ASN = 12071
[INFO: CNLAB     ] CNLAB received 35 Probe seqno 35 from Node 22 Level 1 AVG_RSSI -58 at ASN = 12075
[INFO: CNLAB     ] CNLAB received 35 Probe seqno 35 from Node 25 Level 1 AVG_RSSI -37 at ASN = 12081
[INFO: CNLAB     ] CNLAB received 35 Probe seqno 35 from Node 5 Level 1 AVG_RSSI -46 at ASN = 12094
[INFO: CNLAB     ] CNLAB received 35 Probe seqno 35 from Node 6 Level 1 AVG_RSSI -47 at ASN = 12096
[INFO: CNLAB     ] CNLAB received 35 Probe seqno 35 from Node 7 Level 1 AVG_RSSI -54 at ASN = 12098
[INFO: CNLAB     ] CNLAB received 34 Probe seqno 35 from Node 8 Level 1 AVG_RSSI -58 at ASN = 12100
[INFO: CNLAB     ] CNLAB received 35 Probe seqno 35 from Node 9 Level 1 AVG_RSSI -51 at ASN = 12102
[INFO: CNLAB     ] CNLAB received 35 Probe seqno 35 from Node 10 Level 1 AVG_RSSI -48 at ASN = 12104
[INFO: CNLAB     ] CNLAB received 35 Probe seqno 35 from Node 13 Level 1 AVG_RSSI -53 at ASN = 12110
[INFO: CNLAB     ] CNLAB received 34 Probe seqno 35 from Node 14 Level 1 AVG_RSSI -56 at ASN = 12112
[INFO: CNLAB     ] CNLAB received 35 Probe seqno 35 from Node 15 Level 1 AVG_RSSI -49 at ASN = 12114
[INFO: CNLAB     ] CNLAB received 34 Probe seqno 35 from Node 16 Level 1 AVG_RSSI -56 at ASN = 12116
[INFO: CNLAB     ] CNLAB received 35 Probe seqno 35 from Node 17 Level 1 AVG_RSSI -52 at ASN = 12118
[INFO: CNLAB     ] CNLAB received 35 Probe seqno 36 from Node 18 Level 1 AVG_RSSI -48 at ASN = 12173
[INFO: CNLAB     ] CNLAB received 36 Probe seqno 36 from Node 19 Level 1 AVG_RSSI -51 at ASN = 12175
[INFO: CNLAB     ] CNLAB received 36 Probe seqno 36 from Node 20 Level 1 AVG_RSSI -52 at ASN = 12177
[INFO: CNLAB     ] CNLAB received 36 Probe seqno 36 from Node 22 Level 1 AVG_RSSI -57 at ASN = 12181
[INFO: CNLAB     ] CNLAB received 36 Probe seqno 36 from Node 25 Level 1 AVG_RSSI -37 at ASN = 12187
[INFO: CNLAB     ] CNLAB received 36 Probe seqno 36 from Node 5 Level 1 AVG_RSSI -46 at ASN = 12200
[INFO: CNLAB     ] CNLAB received 36 Probe seqno 36 from Node 6 Level 1 AVG_RSSI -47 at ASN = 12202
[INFO: CNLAB     ] CNLAB received 36 Probe seqno 36 from Node 7 Level 1 AVG_RSSI -54 at ASN = 12204
[INFO: CNLAB     ] CNLAB received 35 Probe seqno 36 from Node 8 Level 1 AVG_RSSI -58 at ASN = 12206
[INFO: CNLAB     ] CNLAB received 36 Probe seqno 36 from Node 9 Level 1 AVG_RSSI -51 at ASN = 12208
[INFO: CNLAB     ] CNLAB received 36 Probe seqno 36 from Node 10 Level 1 AVG_RSSI -48 at ASN = 12210
[INFO: CNLAB     ] CNLAB received 36 Probe seqno 36 from Node 13 Level 1 AVG_RSSI -53 at ASN = 12216
[INFO: CNLAB     ] CNLAB received 35 Probe seqno 36 from Node 14 Level 1 AVG_RSSI -56 at ASN = 12218
[INFO: CNLAB     ] CNLAB received 36 Probe seqno 36 from Node 15 Level 1 AVG_RSSI -49 at ASN = 12220
[INFO: CNLAB     ] CNLAB received 35 Probe seqno 36 from Node 16 Level 1 AVG_RSSI -56 at ASN = 12222
[INFO: CNLAB     ] CNLAB received 36 Probe seqno 36 from Node 17 Level 1 AVG_RSSI -52 at ASN = 12224
[INFO: CNLAB     ] CNLAB received 36 Probe seqno 37 from Node 18 Level 1 AVG_RSSI -48 at ASN = 12279
[INFO: CNLAB     ] CNLAB received 37 Probe seqno 37 from Node 19 Level 1 AVG_RSSI -51 at ASN = 12281
[INFO: CNLAB     ] CNLAB received 37 Probe seqno 37 from Node 20 Level 1 AVG_RSSI -52 at ASN = 12283
[INFO: CNLAB     ] CNLAB received 37 Probe seqno 37 from Node 22 Level 1 AVG_RSSI -57 at ASN = 12287
[INFO: CNLAB     ] CNLAB received 37 Probe seqno 37 from Node 25 Level 1 AVG_RSSI -37 at ASN = 12293
[INFO: CNLAB     ] CNLAB received 37 Probe seqno 37 from Node 5 Level 1 AVG_RSSI -46 at ASN = 12306
[INFO: CNLAB     ] CNLAB received 37 Probe seqno 37 from Node 6 Level 1 AVG_RSSI -46 at ASN = 12308
[INFO: CNLAB     ] CNLAB received 37 Probe seqno 37 from Node 7 Level 1 AVG_RSSI -54 at ASN = 12310
[INFO: CNLAB     ] CNLAB received 36 Probe seqno 37 from Node 8 Level 1 AVG_RSSI -58 at ASN = 12312
[INFO: CNLAB     ] CNLAB received 37 Probe seqno 37 from Node 9 Level 1 AVG_RSSI -51 at ASN = 12314
[INFO: CNLAB     ] CNLAB received 37 Probe seqno 37 from Node 10 Level 1 AVG_RSSI -47 at ASN = 12316
[INFO: CNLAB     ] CNLAB received 37 Probe seqno 37 from Node 13 Level 1 AVG_RSSI -52 at ASN = 12322
[INFO: CNLAB     ] CNLAB received 36 Probe seqno 37 from Node 14 Level 1 AVG_RSSI -56 at ASN = 12324
[INFO: CNLAB     ] CNLAB received 37 Probe seqno 37 from Node 15 Level 1 AVG_RSSI -49 at ASN = 12326
[INFO: CNLAB     ] CNLAB received 36 Probe seqno 37 from Node 16 Level 1 AVG_RSSI -56 at ASN = 12328
[INFO: CNLAB     ] CNLAB received 37 Probe seqno 37 from Node 17 Level 1 AVG_RSSI -52 at ASN = 12330
[INFO: CNLAB     ] CNLAB received 38 Probe seqno 38 from Node 17 Level 1 AVG_RSSI -52 at ASN = 12383
[INFO: CNLAB     ] CNLAB received 37 Probe seqno 38 from Node 18 Level 1 AVG_RSSI -48 at ASN = 12385
[INFO: CNLAB     ] CNLAB received 38 Probe seqno 38 from Node 19 Level 1 AVG_RSSI -51 at ASN = 12387
[INFO: CNLAB     ] CNLAB received 38 Probe seqno 38 from Node 20 Level 1 AVG_RSSI -52 at ASN = 12389
[INFO: CNLAB     ] CNLAB received 38 Probe seqno 38 from Node 22 Level 1 AVG_RSSI -57 at ASN = 12393
[INFO: CNLAB     ] CNLAB received 38 Probe seqno 38 from Node 25 Level 1 AVG_RSSI -37 at ASN = 12399
[INFO: CNLAB     ] CNLAB received 38 Probe seqno 38 from Node 5 Level 1 AVG_RSSI -46 at ASN = 12412
[INFO: CNLAB     ] CNLAB received 38 Probe seqno 38 from Node 6 Level 1 AVG_RSSI -46 at ASN = 12414
[INFO: CNLAB     ] CNLAB received 38 Probe seqno 38 from Node 7 Level 1 AVG_RSSI -54 at ASN = 12416
[INFO: CNLAB     ] CNLAB received 37 Probe seqno 38 from Node 8 Level 1 AVG_RSSI -58 at ASN = 12418
[INFO: CNLAB     ] CNLAB received 38 Probe seqno 38 from Node 9 Level 1 AVG_RSSI -51 at ASN = 12420
[INFO: CNLAB     ] CNLAB received 38 Probe seqno 38 from Node 10 Level 1 AVG_RSSI -46 at ASN = 12422
[INFO: CNLAB     ] CNLAB received 38 Probe seqno 38 from Node 13 Level 1 AVG_RSSI -51 at ASN = 12428
[INFO: CNLAB     ] CNLAB received 37 Probe seqno 38 from Node 14 Level 1 AVG_RSSI -56 at ASN = 12430
[INFO: CNLAB     ] CNLAB received 38 Probe seqno 38 from Node 15 Level 1 AVG_RSSI -49 at ASN = 12432
[INFO: CNLAB     ] CNLAB received 37 Probe seqno 38 from Node 16 Level 1 AVG_RSSI -56 at ASN = 12434
[INFO: CNLAB     ] CNLAB received 39 Probe seqno 39 from Node 17 Level 1 AVG_RSSI -52 at ASN = 12489
[INFO: CNLAB     ] CNLAB received 38 Probe seqno 39 from Node 18 Level 1 AVG_RSSI -48 at ASN = 12491
[INFO: CNLAB     ] CNLAB received 39 Probe seqno 39 from Node 19 Level 1 AVG_RSSI -51 at ASN = 12493
[INFO: CNLAB     ] CNLAB received 39 Probe seqno 39 from Node 20 Level 1 AVG_RSSI -52 at ASN = 12495
[INFO: CNLAB     ] CNLAB received 39 Probe seqno 39 from Node 22 Level 1 AVG_RSSI -57 at ASN = 12499
[INFO: CNLAB     ] CNLAB received 39 Probe seqno 39 from Node 25 Level 1 AVG_RSSI -37 at ASN = 12505
[INFO: CNLAB     ] CNLAB received 39 Probe seqno 39 from Node 5 Level 1 AVG_RSSI -46 at ASN = 12518
[INFO: CNLAB     ] CNLAB received 39 Probe seqno 39 from Node 6 Level 1 AVG_RSSI -46 at ASN = 12520
[INFO: CNLAB     ] CNLAB received 39 Probe seqno 39 from Node 7 Level 1 AVG_RSSI -54 at ASN = 12522
[INFO: CNLAB     ] CNLAB received 39 Probe seqno 39 from Node 9 Level 1 AVG_RSSI -51 at ASN = 12526
[INFO: CNLAB     ] CNLAB received 39 Probe seqno 39 from Node 10 Level 1 AVG_RSSI -46 at ASN = 12528
[INFO: CNLAB     ] CNLAB received 39 Probe seqno 39 from Node 13 Level 1 AVG_RSSI -51 at ASN = 12534
[INFO: CNLAB     ] CNLAB received 38 Probe seqno 39 from Node 14 Level 1 AVG_RSSI -56 at ASN = 12536
[INFO: CNLAB     ] CNLAB received 39 Probe seqno 39 from Node 15 Level 1 AVG_RSSI -49 at ASN = 12538
[INFO: CNLAB     ] CNLAB received 38 Probe seqno 39 from Node 16 Level 1 AVG_RSSI -56 at ASN = 12540
[INFO: CNLAB     ] CNLAB received 40 Probe seqno 40 from Node 17 Level 1 AVG_RSSI -51 at ASN = 12595
[INFO: CNLAB     ] CNLAB received 39 Probe seqno 40 from Node 18 Level 1 AVG_RSSI -48 at ASN = 12597
[INFO: CNLAB     ] CNLAB received 40 Probe seqno 40 from Node 19 Level 1 AVG_RSSI -51 at ASN = 12599
[INFO: CNLAB     ] CNLAB received 40 Probe seqno 40 from Node 20 Level 1 AVG_RSSI -52 at ASN = 12601
[INFO: CNLAB     ] CNLAB received 40 Probe seqno 40 from Node 22 Level 1 AVG_RSSI -57 at ASN = 12605
[INFO: CNLAB     ] CNLAB received 40 Probe seqno 40 from Node 25 Level 1 AVG_RSSI -37 at ASN = 12611
[INFO: CNLAB     ] CNLAB received 40 Probe seqno 40 from Node 5 Level 1 AVG_RSSI -46 at ASN = 12624
[INFO: CNLAB     ] CNLAB received 40 Probe seqno 40 from Node 6 Level 1 AVG_RSSI -46 at ASN = 12626
[INFO: CNLAB     ] CNLAB received 40 Probe seqno 40 from Node 7 Level 1 AVG_RSSI -54 at ASN = 12628
[INFO: CNLAB     ] CNLAB received 38 Probe seqno 40 from Node 8 Level 1 AVG_RSSI -58 at ASN = 12630
[INFO: CNLAB     ] CNLAB received 40 Probe seqno 40 from Node 9 Level 1 AVG_RSSI -51 at ASN = 12632
[INFO: CNLAB     ] CNLAB received 40 Probe seqno 40 from Node 10 Level 1 AVG_RSSI -46 at ASN = 12634
[INFO: CNLAB     ] CNLAB received 40 Probe seqno 40 from Node 13 Level 1 AVG_RSSI -51 at ASN = 12640
[INFO: CNLAB     ] CNLAB received 39 Probe seqno 40 from Node 14 Level 1 AVG_RSSI -56 at ASN = 12642
[INFO: CNLAB     ] CNLAB received 40 Probe seqno 40 from Node 15 Level 1 AVG_RSSI -49 at ASN = 12644
[INFO: CNLAB     ] CNLAB received 39 Probe seqno 40 from Node 16 Level 1 AVG_RSSI -56 at ASN = 12646
[INFO: CNLAB     ] CNLAB received 41 Probe seqno 41 from Node 17 Level 1 AVG_RSSI -51 at ASN = 12701
[INFO: CNLAB     ] CNLAB received 40 Probe seqno 41 from Node 18 Level 1 AVG_RSSI -48 at ASN = 12703
[INFO: CNLAB     ] CNLAB received 41 Probe seqno 41 from Node 19 Level 1 AVG_RSSI -51 at ASN = 12705
[INFO: CNLAB     ] CNLAB received 41 Probe seqno 41 from Node 20 Level 1 AVG_RSSI -52 at ASN = 12707
[INFO: CNLAB     ] CNLAB received 41 Probe seqno 41 from Node 22 Level 1 AVG_RSSI -57 at ASN = 12711
[INFO: CNLAB     ] CNLAB received 41 Probe seqno 41 from Node 25 Level 1 AVG_RSSI -37 at ASN = 12717
[INFO: CNLAB     ] CNLAB received 41 Probe seqno 41 from Node 5 Level 1 AVG_RSSI -46 at ASN = 12730
[INFO: CNLAB     ] CNLAB received 41 Probe seqno 41 from Node 6 Level 1 AVG_RSSI -46 at ASN = 12732
[INFO: CNLAB     ] CNLAB received 41 Probe seqno 41 from Node 7 Level 1 AVG_RSSI -54 at ASN = 12734
[INFO: CNLAB     ] CNLAB received 39 Probe seqno 41 from Node 8 Level 1 AVG_RSSI -58 at ASN = 12736
[INFO: CNLAB     ] CNLAB received 41 Probe seqno 41 from Node 9 Level 1 AVG_RSSI -51 at ASN = 12738
[INFO: CNLAB     ] CNLAB received 41 Probe seqno 41 from Node 10 Level 1 AVG_RSSI -46 at ASN = 12740
[INFO: CNLAB     ] CNLAB received 41 Probe seqno 41 from Node 13 Level 1 AVG_RSSI -51 at ASN = 12746
[INFO: CNLAB     ] CNLAB received 40 Probe seqno 41 from Node 14 Level 1 AVG_RSSI -56 at ASN = 12748
[INFO: CNLAB     ] CNLAB received 41 Probe seqno 41 from Node 15 Level 1 AVG_RSSI -49 at ASN = 12750
[INFO: CNLAB     ] CNLAB received 40 Probe seqno 41 from Node 16 Level 1 AVG_RSSI -56 at ASN = 12752
[INFO: CNLAB     ] CNLAB received 42 Probe seqno 42 from Node 17 Level 1 AVG_RSSI -51 at ASN = 12807
[INFO: CNLAB     ] CNLAB received 41 Probe seqno 42 from Node 18 Level 1 AVG_RSSI -48 at ASN = 12809
[INFO: CNLAB     ] CNLAB received 42 Probe seqno 42 from Node 19 Level 1 AVG_RSSI -51 at ASN = 12811
[INFO: CNLAB     ] CNLAB received 42 Probe seqno 42 from Node 20 Level 1 AVG_RSSI -52 at ASN = 12813
[INFO: CNLAB     ] CNLAB received 42 Probe seqno 42 from Node 22 Level 1 AVG_RSSI -57 at ASN = 12817
[INFO: CNLAB     ] CNLAB received 42 Probe seqno 42 from Node 25 Level 1 AVG_RSSI -37 at ASN = 12823
[INFO: CNLAB     ] CNLAB received 42 Probe seqno 42 from Node 5 Level 1 AVG_RSSI -46 at ASN = 12836
[INFO: CNLAB     ] CNLAB received 42 Probe seqno 42 from Node 6 Level 1 AVG_RSSI -46 at ASN = 12838
[INFO: CNLAB     ] CNLAB received 42 Probe seqno 42 from Node 7 Level 1 AVG_RSSI -54 at ASN = 12840
[INFO: CNLAB     ] CNLAB received 40 Probe seqno 42 from Node 8 Level 1 AVG_RSSI -58 at ASN = 12842
[INFO: CNLAB     ] CNLAB received 42 Probe seqno 42 from Node 9 Level 1 AVG_RSSI -51 at ASN = 12844
[INFO: CNLAB     ] CNLAB received 42 Probe seqno 42 from Node 10 Level 1 AVG_RSSI -46 at ASN = 12846
[INFO: CNLAB     ] CNLAB received 42 Probe seqno 42 from Node 13 Level 1 AVG_RSSI -51 at ASN = 12852
[INFO: CNLAB     ] CNLAB received 41 Probe seqno 42 from Node 14 Level 1 AVG_RSSI -56 at ASN = 12854
[INFO: CNLAB     ] CNLAB received 42 Probe seqno 42 from Node 15 Level 1 AVG_RSSI -49 at ASN = 12856
[INFO: CNLAB     ] CNLAB received 41 Probe seqno 42 from Node 16 Level 1 AVG_RSSI -56 at ASN = 12858
[INFO: CNLAB     ] CNLAB received 43 Probe seqno 43 from Node 17 Level 1 AVG_RSSI -51 at ASN = 12913
[INFO: CNLAB     ] CNLAB received 42 Probe seqno 43 from Node 18 Level 1 AVG_RSSI -48 at ASN = 12915
[INFO: CNLAB     ] CNLAB received 43 Probe seqno 43 from Node 19 Level 1 AVG_RSSI -51 at ASN = 12917
[INFO: CNLAB     ] CNLAB received 43 Probe seqno 43 from Node 20 Level 1 AVG_RSSI -52 at ASN = 12919
[INFO: CNLAB     ] CNLAB received 43 Probe seqno 43 from Node 22 Level 1 AVG_RSSI -57 at ASN = 12923
[INFO: CNLAB     ] CNLAB received 43 Probe seqno 43 from Node 25 Level 1 AVG_RSSI -37 at ASN = 12929
[INFO: CNLAB     ] CNLAB received 43 Probe seqno 43 from Node 5 Level 1 AVG_RSSI -46 at ASN = 12942
[INFO: CNLAB     ] CNLAB received 43 Probe seqno 43 from Node 6 Level 1 AVG_RSSI -46 at ASN = 12944
[INFO: CNLAB     ] CNLAB received 43 Probe seqno 43 from Node 7 Level 1 AVG_RSSI -54 at ASN = 12946
[INFO: CNLAB     ] CNLAB received 41 Probe seqno 43 from Node 8 Level 1 AVG_RSSI -58 at ASN = 12948
[INFO: CNLAB     ] CNLAB received 43 Probe seqno 43 from Node 9 Level 1 AVG_RSSI -51 at ASN = 12950
[INFO: CNLAB     ] CNLAB received 43 Probe seqno 43 from Node 10 Level 1 AVG_RSSI -46 at ASN = 12952
[INFO: CNLAB     ] CNLAB received 43 Probe seqno 43 from Node 13 Level 1 AVG_RSSI -50 at ASN = 12958
[INFO: CNLAB     ] CNLAB received 42 Probe seqno 43 from Node 14 Level 1 AVG_RSSI -56 at ASN = 12960
[INFO: CNLAB     ] CNLAB received 43 Probe seqno 43 from Node 15 Level 1 AVG_RSSI -49 at ASN = 12962
[INFO: CNLAB     ] CNLAB received 42 Probe seqno 43 from Node 16 Level 1 AVG_RSSI -56 at ASN = 12964
[INFO: CNLAB     ] CNLAB received 44 Probe seqno 44 from Node 17 Level 1 AVG_RSSI -51 at ASN = 13019
[INFO: CNLAB     ] CNLAB received 43 Probe seqno 44 from Node 18 Level 1 AVG_RSSI -48 at ASN = 13021
[INFO: CNLAB     ] CNLAB received 44 Probe seqno 44 from Node 19 Level 1 AVG_RSSI -51 at ASN = 13023
[INFO: CNLAB     ] CNLAB received 44 Probe seqno 44 from Node 20 Level 1 AVG_RSSI -52 at ASN = 13025
[INFO: CNLAB     ] CNLAB received 44 Probe seqno 44 from Node 25 Level 1 AVG_RSSI -37 at ASN = 13035
[INFO: CNLAB     ] CNLAB received 44 Probe seqno 44 from Node 5 Level 1 AVG_RSSI -46 at ASN = 13048
[INFO: CNLAB     ] CNLAB received 44 Probe seqno 44 from Node 6 Level 1 AVG_RSSI -46 at ASN = 13050
[INFO: CNLAB     ] CNLAB received 44 Probe seqno 44 from Node 7 Level 1 AVG_RSSI -54 at ASN = 13052
[INFO: CNLAB     ] CNLAB received 42 Probe seqno 44 from Node 8 Level 1 AVG_RSSI -58 at ASN = 13054
[INFO: CNLAB     ] CNLAB received 44 Probe seqno 44 from Node 9 Level 1 AVG_RSSI -51 at ASN = 13056
[INFO: CNLAB     ] CNLAB received 44 Probe seqno 44 from Node 10 Level 1 AVG_RSSI -46 at ASN = 13058
[INFO: CNLAB     ] CNLAB received 44 Probe seqno 44 from Node 13 Level 1 AVG_RSSI -50 at ASN = 13064
[INFO: CNLAB     ] CNLAB received 43 Probe seqno 44 from Node 14 Level 1 AVG_RSSI -56 at ASN = 13066
[INFO: CNLAB     ] CNLAB received 44 Probe seqno 44 from Node 15 Level 1 AVG_RSSI -49 at ASN = 13068
[INFO: CNLAB     ] CNLAB received 43 Probe seqno 45 from Node 16 Level 1 AVG_RSSI -56 at ASN = 13123
[INFO: CNLAB     ] CNLAB received 45 Probe seqno 45 from Node 17 Level 1 AVG_RSSI -51 at ASN = 13125
[INFO: CNLAB     ] CNLAB received 44 Probe seqno 45 from Node 18 Level 1 AVG_RSSI -48 at ASN = 13127
[INFO: CNLAB     ] CNLAB received 45 Probe seqno 45 from Node 19 Level 1 AVG_RSSI -51 at ASN = 13129
[INFO: CNLAB     ] CNLAB received 45 Probe seqno 45 from Node 20 Level 1 AVG_RSSI -52 at ASN = 13131
[INFO: CNLAB     ] CNLAB received 44 Probe seqno 45 from Node 22 Level 1 AVG_RSSI -57 at ASN = 13135
[INFO: CNLAB     ] CNLAB received 45 Probe seqno 45 from Node 25 Level 1 AVG_RSSI -37 at ASN = 13141
[INFO: CNLAB     ] CNLAB received 45 Probe seqno 45 from Node 5 Level 1 AVG_RSSI -46 at ASN = 13154
[INFO: CNLAB     ] CNLAB received 45 Probe seqno 45 from Node 6 Level 1 AVG_RSSI -46 at ASN = 13156
[INFO: CNLAB     ] CNLAB received 45 Probe seqno 45 from Node 7 Level 1 AVG_RSSI -54 at ASN = 13158
[INFO: CNLAB     ] CNLAB received 43 Probe seqno 45 from Node 8 Level 1 AVG_RSSI -58 at ASN = 13160
[INFO: CNLAB     ] CNLAB received 45 Probe seqno 45 from Node 9 Level 1 AVG_RSSI -51 at ASN = 13162
[INFO: CNLAB     ] CNLAB received 45 Probe seqno 45 from Node 10 Level 1 AVG_RSSI -46 at ASN = 13164
[INFO: CNLAB     ] CNLAB received 45 Probe seqno 45 from Node 13 Level 1 AVG_RSSI -50 at ASN = 13170
[INFO: CNLAB     ] CNLAB received 44 Probe seqno 45 from Node 14 Level 1 AVG_RSSI -56 at ASN = 13172
[INFO: CNLAB     ] CNLAB received 45 Probe seqno 45 from Node 15 Level 1 AVG_RSSI -49 at ASN = 13174
[INFO: CNLAB     ] CNLAB received 44 Probe seqno 46 from Node 16 Level 1 AVG_RSSI -56 at ASN = 13229
[INFO: CNLAB     ] CNLAB received 46 Probe seqno 46 from Node 17 Level 1 AVG_RSSI -51 at ASN = 13231
[INFO: CNLAB     ] CNLAB received 45 Probe seqno 46 from Node 18 Level 1 AVG_RSSI -48 at ASN = 13233
[INFO: CNLAB     ] CNLAB received 46 Probe seqno 46 from Node 19 Level 1 AVG_RSSI -51 at ASN = 13235
[INFO: CNLAB     ] CNLAB received 46 Probe seqno 46 from Node 20 Level 1 AVG_RSSI -52 at ASN = 13237
[INFO: CNLAB     ] CNLAB received 45 Probe seqno 46 from Node 22 Level 1 AVG_RSSI -57 at ASN = 13241
[INFO: CNLAB     ] CNLAB received 46 Probe seqno 46 from Node 25 Level 1 AVG_RSSI -37 at ASN = 13247
[INFO: CNLAB     ] CNLAB received 46 Probe seqno 46 from Node 5 Level 1 AVG_RSSI -46 at ASN = 13260
[INFO: CNLAB     ] CNLAB received 46 Probe seqno 46 from Node 6 Level 1 AVG_RSSI -46 at ASN = 13262
[INFO: CNLAB     ] CNLAB received 46 Probe seqno 46 from Node 7 Level 1 AVG_RSSI -54 at ASN = 13264
[INFO: CNLAB     ] CNLAB received 44 Probe seqno 46 from Node 8 Level 1 AVG_RSSI -58 at ASN = 13266
[INFO: CNLAB     ] CNLAB received 46 Probe seqno 46 from Node 9 Level 1 AVG_RSSI -51 at ASN = 13268
[INFO: CNLAB     ] CNLAB received 46 Probe seqno 46 from Node 10 Level 1 AVG_RSSI -46 at ASN = 13270
[INFO: CNLAB     ] CNLAB received 46 Probe seqno 46 from Node 13 Level 1 AVG_RSSI -50 at ASN = 13276
[INFO: CNLAB     ] CNLAB received 45 Probe seqno 46 from Node 14 Level 1 AVG_RSSI -56 at ASN = 13278
[INFO: CNLAB     ] CNLAB received 46 Probe seqno 46 from Node 15 Level 1 AVG_RSSI -49 at ASN = 13280
[INFO: CNLAB     ] CNLAB received 45 Probe seqno 47 from Node 16 Level 1 AVG_RSSI -56 at ASN = 13335
[INFO: CNLAB     ] CNLAB received 47 Probe seqno 47 from Node 17 Level 1 AVG_RSSI -50 at ASN = 13337
[INFO: CNLAB     ] CNLAB received 46 Probe seqno 47 from Node 18 Level 1 AVG_RSSI -48 at ASN = 13339
[INFO: CNLAB     ] CNLAB received 47 Probe seqno 47 from Node 19 Level 1 AVG_RSSI -51 at ASN = 13341
[INFO: CNLAB     ] CNLAB received 47 Probe seqno 47 from Node 20 Level 1 AVG_RSSI -52 at ASN = 13343
[INFO: CNLAB     ] CNLAB received 46 Probe seqno 47 from Node 22 Level 1 AVG_RSSI -57 at ASN = 13347
[INFO: CNLAB     ] CNLAB received 47 Probe seqno 47 from Node 25 Level 1 AVG_RSSI -37 at ASN = 13353
[INFO: CNLAB     ] CNLAB received 47 Probe seqno 47 from Node 5 Level 1 AVG_RSSI -46 at ASN = 13366
[INFO: CNLAB     ] CNLAB received 47 Probe seqno 47 from Node 6 Level 1 AVG_RSSI -46 at ASN = 13368
[INFO: CNLAB     ] CNLAB received 47 Probe seqno 47 from Node 7 Level 1 AVG_RSSI -54 at ASN = 13370
[INFO: CNLAB     ] CNLAB received 45 Probe seqno 47 from Node 8 Level 1 AVG_RSSI -58 at ASN = 13372
[INFO: CNLAB     ] CNLAB received 47 Probe seqno 47 from Node 9 Level 1 AVG_RSSI -51 at ASN = 13374
[INFO: CNLAB     ] CNLAB received 47 Probe seqno 47 from Node 10 Level 1 AVG_RSSI -46 at ASN = 13376
[INFO: CNLAB     ] CNLAB received 47 Probe seqno 47 from Node 13 Level 1 AVG_RSSI -50 at ASN = 13382
[INFO: CNLAB     ] CNLAB received 46 Probe seqno 47 from Node 14 Level 1 AVG_RSSI -56 at ASN = 13384
[INFO: CNLAB     ] CNLAB received 47 Probe seqno 47 from Node 15 Level 1 AVG_RSSI -49 at ASN = 13386
[INFO: CNLAB     ] CNLAB received 46 Probe seqno 48 from Node 16 Level 1 AVG_RSSI -56 at ASN = 13441
[INFO: CNLAB     ] CNLAB received 48 Probe seqno 48 from Node 17 Level 1 AVG_RSSI -50 at ASN = 13443
[INFO: CNLAB     ] CNLAB received 47 Probe seqno 48 from Node 18 Level 1 AVG_RSSI -48 at ASN = 13445
[INFO: CNLAB     ] CNLAB received 48 Probe seqno 48 from Node 19 Level 1 AVG_RSSI -51 at ASN = 13447
[INFO: CNLAB     ] CNLAB received 48 Probe seqno 48 from Node 20 Level 1 AVG_RSSI -52 at ASN = 13449
[INFO: CNLAB     ] CNLAB received 47 Probe seqno 48 from Node 22 Level 1 AVG_RSSI -57 at ASN = 13453
[INFO: CNLAB     ] CNLAB received 48 Probe seqno 48 from Node 25 Level 1 AVG_RSSI -37 at ASN = 13459
[INFO: CNLAB     ] CNLAB received 48 Probe seqno 48 from Node 5 Level 1 AVG_RSSI -46 at ASN = 13472
[INFO: CNLAB     ] CNLAB received 48 Probe seqno 48 from Node 6 Level 1 AVG_RSSI -46 at ASN = 13474
[INFO: CNLAB     ] CNLAB received 48 Probe seqno 48 from Node 7 Level 1 AVG_RSSI -54 at ASN = 13476
[INFO: CNLAB     ] CNLAB received 46 Probe seqno 48 from Node 8 Level 1 AVG_RSSI -58 at ASN = 13478
[INFO: CNLAB     ] CNLAB received 48 Probe seqno 48 from Node 9 Level 1 AVG_RSSI -51 at ASN = 13480
[INFO: CNLAB     ] CNLAB received 48 Probe seqno 48 from Node 10 Level 1 AVG_RSSI -45 at ASN = 13482
[INFO: CNLAB     ] CNLAB received 48 Probe seqno 48 from Node 13 Level 1 AVG_RSSI -50 at ASN = 13488
[INFO: CNLAB     ] CNLAB received 47 Probe seqno 48 from Node 14 Level 1 AVG_RSSI -56 at ASN = 13490
[INFO: CNLAB     ] CNLAB received 48 Probe seqno 48 from Node 15 Level 1 AVG_RSSI -49 at ASN = 13492
[INFO: CNLAB     ] CNLAB received 47 Probe seqno 49 from Node 16 Level 1 AVG_RSSI -56 at ASN = 13547
[INFO: CNLAB     ] CNLAB received 49 Probe seqno 49 from Node 17 Level 1 AVG_RSSI -50 at ASN = 13549
[INFO: CNLAB     ] CNLAB received 48 Probe seqno 49 from Node 18 Level 1 AVG_RSSI -48 at ASN = 13551
[INFO: CNLAB     ] CNLAB received 49 Probe seqno 49 from Node 19 Level 1 AVG_RSSI -51 at ASN = 13553
[INFO: CNLAB     ] CNLAB received 49 Probe seqno 49 from Node 20 Level 1 AVG_RSSI -52 at ASN = 13555
[INFO: CNLAB     ] CNLAB received 48 Probe seqno 49 from Node 22 Level 1 AVG_RSSI -57 at ASN = 13559
[INFO: CNLAB     ] CNLAB received 49 Probe seqno 49 from Node 25 Level 1 AVG_RSSI -37 at ASN = 13565
[INFO: CNLAB     ] CNLAB received 49 Probe seqno 49 from Node 5 Level 1 AVG_RSSI -45 at ASN = 13578
[INFO: CNLAB     ] CNLAB received 49 Probe seqno 49 from Node 6 Level 1 AVG_RSSI -46 at ASN = 13580
[INFO: CNLAB     ] CNLAB received 49 Probe seqno 49 from Node 7 Level 1 AVG_RSSI -53 at ASN = 13582
[INFO: CNLAB     ] CNLAB received 47 Probe seqno 49 from Node 8 Level 1 AVG_RSSI -58 at ASN = 13584
[INFO: CNLAB     ] CNLAB received 49 Probe seqno 49 from Node 9 Level 1 AVG_RSSI -51 at ASN = 13586
[INFO: CNLAB     ] CNLAB received 49 Probe seqno 49 from Node 13 Level 1 AVG_RSSI -50 at ASN = 13594
[INFO: CNLAB     ] CNLAB received 48 Probe seqno 49 from Node 14 Level 1 AVG_RSSI -56 at ASN = 13596
[INFO: CNLAB     ] CNLAB received 49 Probe seqno 49 from Node 15 Level 1 AVG_RSSI -49 at ASN = 13598
[INFO: CNLAB     ] CNLAB received 48 Probe seqno 50 from Node 16 Level 1 AVG_RSSI -56 at ASN = 13653
[INFO: CNLAB     ] CNLAB received 50 Probe seqno 50 from Node 17 Level 1 AVG_RSSI -50 at ASN = 13655
[INFO: CNLAB     ] CNLAB received 49 Probe seqno 50 from Node 18 Level 1 AVG_RSSI -48 at ASN = 13657
[INFO: CNLAB     ] CNLAB received 50 Probe seqno 50 from Node 19 Level 1 AVG_RSSI -51 at ASN = 13659
[INFO: CNLAB     ] CNLAB received 50 Probe seqno 50 from Node 20 Level 1 AVG_RSSI -52 at ASN = 13661
[INFO: CNLAB     ] CNLAB received 49 Probe seqno 50 from Node 22 Level 1 AVG_RSSI -57 at ASN = 13665
[INFO: CNLAB     ] CNLAB received 50 Probe seqno 50 from Node 25 Level 1 AVG_RSSI -37 at ASN = 13671
[INFO: CNLAB     ] CNLAB received 50 Probe seqno 50 from Node 5 Level 1 AVG_RSSI -45 at ASN = 13684
[INFO: CNLAB     ] CNLAB received 50 Probe seqno 50 from Node 6 Level 1 AVG_RSSI -46 at ASN = 13686
[INFO: CNLAB     ] CNLAB received 50 Probe seqno 50 from Node 7 Level 1 AVG_RSSI -52 at ASN = 13688
[INFO: CNLAB     ] CNLAB received 48 Probe seqno 50 from Node 8 Level 1 AVG_RSSI -57 at ASN = 13690
[INFO: CNLAB     ] CNLAB received 50 Probe seqno 50 from Node 9 Level 1 AVG_RSSI -51 at ASN = 13692
[INFO: CNLAB     ] CNLAB received 49 Probe seqno 50 from Node 10 Level 1 AVG_RSSI -44 at ASN = 13694
[INFO: CNLAB     ] CNLAB received 50 Probe seqno 50 from Node 13 Level 1 AVG_RSSI -50 at ASN = 13700
[INFO: CNLAB     ] CNLAB received 49 Probe seqno 50 from Node 14 Level 1 AVG_RSSI -55 at ASN = 13702
[INFO: CNLAB     ] CNLAB received 50 Probe seqno 50 from Node 15 Level 1 AVG_RSSI -49 at ASN = 13704
[INFO: CNLAB     ] CNLAB PROTOCOL MEASURE LINK QUALITY at ASN = 13943
[INFO: CNLAB     ] PRR(22->3) = 0.97
[INFO: CNLAB     ] PRR(25->3) = 0.98
[INFO: CNLAB     ] PRR(5->3) = 0.98
[INFO: CNLAB     ] PRR(6->3) = 0.98
[INFO: CNLAB     ] PRR(7->3) = 0.98
[INFO: CNLAB     ] PRR(8->3) = 0.95
[INFO: CNLAB     ] PRR(9->3) = 0.98
[INFO: CNLAB     ] PRR(10->3) = 0.97
[INFO: CNLAB     ] PRR(13->3) = 0.98
[INFO: CNLAB     ] PRR(14->3) = 0.97
[INFO: CNLAB     ] PRR(15->3) = 0.98
[INFO: CNLAB     ] PRR(16->3) = 0.95
[INFO: CNLAB     ] PRR(17->3) = 0.98
[INFO: CNLAB     ] PRR(18->3) = 0.97
[INFO: CNLAB     ] PRR(19->3) = 0.98
[INFO: CNLAB     ] PRR(20->3) = 0.98
[PRI : TSCH      ] KA sent to 0012.4b00.194a.528e, st 0-1
[INFO: CNLAB     ] exchanged PRR timer callback at ASN = 18207
?NI/c/1/13/yefgijmoqrstv/98 98 98 98 98 97 98 98 98 97 98 98 97
[INFO: CNLAB     ] UART  process is running
[PRI : TSCH      ] KA sent to 0012.4b00.194a.528e, st 0-1[INFO: CNLAB     ] CNLAB PROTOCOL MAKE TSCH SCHEDULE at ASN = 26408[INFO: CNLAB     ] CNLAB Removed Orchestra Slotframe Successful[PRI : TSCH      ] KA sent to 0012.4b00.194a.528e, st 0-1[PRI : TSCH      ] KA sent to 0012.4b00.194a.528e, st 0-1[PRI : TSCH      ] KA sent to 0012.4b00.194a.528e, st 0-1[PRI : TSCH      ] KA sent to 0012.4b00.194a.528e, st 0-1[PRI : TSCH      ] KA sent to 0012.4b00.194a.528e, st 0-1[PRI : TSCH      ] KA sent to 0012.4b00.194a.528e, st 0-1[PRI : TSCH      ] KA sent to 0012.4b00.194a.528e, st 0-1[PRI : TSCH      ] KA sent to 0012.4b00.194a.528e, st 0-1[PRI : TSCH      ] KA sent to 0012.4b00.194a.528e, st 0-1[PRI : TSCH      ] KA sent to 0012.4b00.194a.528e, st 0-1[PRI : TSCH      ] KA sent to 0012.4b00.194a.528e, st 0-1[PRI : TSCH      ] KA sent to 0012.4b00.194a.528e, st 0-1[PRI : TSCH      ] KA sent to 0012.4b00.194a.528e, st 0-1[INFO: CNLAB     ] CNLAB Calculate Data Reception Rate timer callback[INFO: CNLAB     ] CNLAB DATA PRR(6->3) = 1.0[INFO: CNLAB     ] CNLAB DATA PRR(7->3) = 1.0[INFO: CNLAB     ] CNLAB DATA PRR(9->3) = 1.0[INFO: CNLAB     ] CNLAB DATA PRR(13->3) = 1.0[INFO: CNLAB     ] CNLAB DATA PRR(15->3) = 1.0[INFO: CNLAB     ] CNLAB DATA PRR(20->3) = 1.0[INFO: CNLAB     ] CNLAB DATA PRR(24->3) = 1.0[PRI : TSCH      ] KA sent to 0012.4b00.194a.528e, st 0-1[PRI : TSCH      ] KA sent to 0012.4b00.194a.528e, st 0-1[PRI : TSCH      ] KA sent to 0012.4b00.194a.528e, st 0-1[INFO: CNLAB     ] CNLAB PROTOCOL INITIALIZE at ASN = 0[INFO: Main      ] Starting Contiki-NG-release/v4.3-98-g03dc244-dirty[INFO: Main      ] - Routing: R-RPT[INFO: Main      ] - Net: nullnet[INFO: Main      ] - MAC: TSCH[INFO: Main      ] - 802.15.4 PANID: 0xabcd[INFO: Main      ] - 802.15.4 TSCH default hopping sequence length: 6[INFO: Main      ] Node ID: 3[INFO: Main      ] Link-layer address: 0012.4b00.194a.5283[INFO: Zoul      ] Zolertia RE-Mote revision B platformOrchestra: initializing rule 0Orchestra: initialization done